Interface to the MERMAID API • mermaidr
…
Then, you can start to access data about your projects, like project sites via mermaid_get_project_sites():

indonesia_projects %>%
  mermaid_get_project_sites()
#> # A tibble: 98 x 13
#>    project id    name  notes latitude longitude country reef_type reef_zone
#>    <chr>   <chr> <chr> <chr>    <dbl>     <dbl> <chr>   <chr>     <chr>    
#>  1 Karimu… a763… Gent… ""       -5.86     111.  Indone… fringing  back reef
#>  2 Aceh J… 5436… Wisa… ""        5.04      95.4 Indone… fringing  fore reef
#>  3 Aceh J… b7d5… Reha… ""        4.84      95.4 Indone… fringing  fore reef
#>  4 Karimu… 0368… Meny… ""       -5.80     110.  Indone… fringing  fore reef
#>  5 Aceh J… 38f7… Pula… ""        5.08      95.3 Indone… fringing  back reef
#>  6 Karimu… 21ae… Batu… ""       -5.81     110.  Indone… fringing  back reef
#>  7 Karimu… 371b… Tanj… ""       -5.83     110.  Indone… fringing  back reef
#>  8 Karimu… 43d3… Lego… ""       -5.87     110.  Indone… fringing  back reef
#>  9 Karimu… 9ec6… Cema… ""       -5.80     110.  Indone… fringing  back reef
#> 10 Karimu… e23a… Tanj… ""       -5.86     110.  Indone… fringing  back reef
#> # … with 88 more rows, and 4 more variables: exposure <chr>, predecessor <lgl>,
#> #   created_on <chr>, updated_on <chr>
…
Method data

You can also access data on your projects’ Fish Belt, Benthic LIT, Benthic PIT, Bleaching, and Habitat Complexity methods. The details are in the following sections.

Fish Belt data

To access Fish Belt data for a project, use mermaid_get_project_data() with method = "fishbelt". You can access individual observations (i.e., a record of each observation) by setting data = "observations":

xpdc <- my_projects %>%
  filter(name == "XPDC Kei Kecil 2018")

xpdc %>%
  mermaid_get_project_data(method = "fishbelt", data = "observations")
#> # A tibble: 3,069 x 52
#>    project tags  country site  latitude longitude reef_type reef_zone
#>    <chr>   <lgl> <chr>   <chr>    <dbl>     <dbl> <chr>     <chr>    
#>  1 XPDC K… NA    Indone… KE02     -5.44      133. fringing  crest    
#>  2 XPDC K… NA    Indone… KE02     -5.44      133. fringing  crest    
#>  3 XPDC K… NA    Indone… KE02     -5.44      133. fringing  crest    
#>  4 XPDC K… NA    Indone… KE02     -5.44      133. fringing  crest    
#>  5 XPDC K… NA    Indone… KE02     -5.44      133. fringing  crest    
#>  6 XPDC K… NA    Indone… KE02     -5.44      133. fringing  crest    
#>  7 XPDC K… NA    Indone… KE02     -5.44      133. fringing  crest    
#>  8 XPDC K… NA    Indone… KE02     -5.44      133. fringing  crest    
#>  9 XPDC K… NA    Indone… KE02     -5.44      133. fringing  crest    
#> 10 XPDC K… NA    Indone… KE02     -5.44      133. fringing  crest    
#> # … with 3,059 more rows, and 44 more variables: reef_exposure <chr>,
#> #   reef_slope <chr>, tide <chr>, current <chr>, visibility <chr>,
#> #   relative_depth <chr>, aca_geomorphic <chr>, aca_benthic <chr>,
#> #   management <chr>, management_secondary <chr>, management_est_year <lgl>,
#> #   management_size <lgl>, management_parties <lgl>,
#> #   management_compliance <chr>, management_rules <chr>, sample_date <date>,
#> #   sample_time <chr>, transect_length <int>, transect_width <chr>,
#> #   size_bin <chr>, observers <chr>, depth <dbl>, transect_number <int>,
#> #   label <chr>, fish_family <chr>, fish_genus <chr>, fish_taxon <chr>,
#> #   size <dbl>, biomass_constant_a <dbl>, biomass_constant_b <dbl>,
#> #   biomass_constant_c <dbl>, count <int>, biomass_kgha <dbl>,
#> #   trophic_level <dbl>, trophic_group <chr>, functional_group <chr>,
#> #   vulnerability <dbl>, data_policy_beltfish <chr>, project_notes <chr>,
#> #   site_notes <chr>, management_notes <chr>, sample_unit_id <chr>,
#> #   sample_event_id <chr>, contact_link <chr>

You can access sample units data, which are observations aggregated to the sample units level. Fish belt sample units contain total biomass in kg/ha per sample unit, by trophic group:

xpdc %>%
  mermaid_get_project_data("fishbelt", "sampleunits")
#> # A tibble: 246 x 44
#>    project tags  country site  latitude longitude reef_type reef_zone
#>    <chr>   <lgl> <chr>   <chr>    <dbl>     <dbl> <chr>     <chr>    
#>  1 XPDC K… NA    Indone… KE02     -5.44      133. fringing  crest    
#>  2 XPDC K… NA    Indone… KE02     -5.44      133. fringing  crest    
#>  3 XPDC K… NA    Indone… KE02     -5.44      133. fringing  crest    
#>  4 XPDC K… NA    Indone… KE02     -5.44      133. fringing  crest    
#>  5 XPDC K… NA    Indone… KE02     -5.44      133. fringing  crest    
#>  6 XPDC K… NA    Indone… KE02     -5.44      133. fringing  crest    
#>  7 XPDC K… NA    Indone… KE03     -5.61      132. fringing  crest    
#>  8 XPDC K… NA    Indone… KE03     -5.61      132. fringing  crest    
#>  9 XPDC K… NA    Indone… KE03     -5.61      132. fringing  crest    
#> 10 XPDC K… NA    Indone… KE03     -5.61      132. fringing  crest    
#> # … with 236 more rows, and 58 more variables: reef_exposure <chr>,
#> #   reef_slope <chr>, tide <chr>, current <chr>, visibility <chr>,
#> #   relative_depth <chr>, aca_geomorphic <chr>, aca_benthic <chr>,
#> #   management <chr>, management_secondary <chr>, management_est_year <lgl>,
#> #   management_size <lgl>, management_parties <lgl>,
#> #   management_compliance <chr>, management_rules <chr>, sample_date <date>,
#> #   sample_time <chr>, depth <dbl>, transect_number <int>, label <chr>,
#> #   size_bin <chr>, transect_length <int>, transect_width <chr>,
#> #   biomass_kgha <dbl>, total_abundance <int>,
…
And finally, sample events data, which are aggregated further, to the sample event level. Fish belt sample events contain mean total biomass in kg/ha per sample event and by trophic group:

xpdc_sample_events <- xpdc %>%
  mermaid_get_project_data("fishbelt", "sampleevents")

xpdc_sample_events
#> # A tibble: 46 x 34
#>    project tags  country site  latitude longitude reef_type reef_zone
#>    <chr>   <lgl> <chr>   <chr>    <dbl>     <dbl> <chr>     <chr>    
#>  1 XPDC K… NA    Indone… KE02     -5.44      133. fringing  crest    
#>  2 XPDC K… NA    Indone… KE03     -5.61      132. fringing  crest    
#>  3 XPDC K… NA    Indone… KE04     -5.58      132. fringing  crest    
#>  4 XPDC K… NA    Indone… KE05     -5.47      133. fringing  crest    
#>  5 XPDC K… NA    Indone… KE06     -5.52      132. fringing  crest    
#>  6 XPDC K… NA    Indone… KE07     -5.57      133. fringing  crest    
#>  7 XPDC K… NA    Indone… KE08     -5.55      133. fringing  crest    
#>  8 XPDC K… NA    Indone… KE09     -5.60      133. fringing  fore reef
#>  9 XPDC K… NA    Indone… KE10     -5.57      133. fringing  crest    
#> 10 XPDC K… NA    Indone… KE11     -5.59      133. fringing  crest    
#> # … with 36 more rows, and 48 more variables: reef_exposure <chr>, tide <chr>,
#> #   current <chr>, visibility <chr>, aca_geomorphic <chr>, aca_benthic <chr>,
#> #   management <chr>, management_secondary <chr>, management_est_year <lgl>,
#> #   management_size <lgl>, management_parties <lgl>,
#> #   management_compliance <chr>, management_rules <chr>, sample_date <date>,
#> #   depth_avg <dbl>, biomass_kgha_avg <dbl>,
#> #   biomass_kgha_by_trophic_group_avg$omnivore <dbl>, $piscivore <dbl>,
#> #   $planktivore <dbl>, $`invertivore-mobile` <dbl>,
#> #   $`herbivore-detritivore` <dbl>, $`invertivore-sessile` <dbl>,
…
A note on saving data

Both the sample units and sample events data contain a “data-frame column” (biomass_kgha_by_trophic_group and biomass_kgha_by_trophic_group_avg, respectively). In order to save this data in a file like a CSV or XLSX, you will need to expand this column first.

This can be done with a function from the mermaidreporting package, mermaid_clean_columns():

library(mermaidreporting)

xpdc_sample_events_clean <- xpdc_sample_events %>%
  mermaid_clean_columns()

xpdc_sample_events_clean
#> # A tibble: 46 x 56
#>    project tags  country site  latitude longitude reef_type reef_zone
#>    <chr>   <lgl> <chr>   <chr>    <dbl>     <dbl> <chr>     <chr>    
#>  1 XPDC K… NA    Indone… KE02     -5.44      133. fringing  crest    
#>  2 XPDC K… NA    Indone… KE03     -5.61      132. fringing  crest    
#>  3 XPDC K… NA    Indone… KE04     -5.58      132. fringing  crest    
#>  4 XPDC K… NA    Indone… KE05     -5.47      133. fringing  crest    
#>  5 XPDC K… NA    Indone… KE06     -5.52      132. fringing  crest    
#>  6 XPDC K… NA    Indone… KE07     -5.57      133. fringing  crest    
#>  7 XPDC K… NA    Indone… KE08     -5.55      133. fringing  crest    
#>  8 XPDC K… NA    Indone… KE09     -5.60      133. fringing  fore reef
#>  9 XPDC K… NA    Indone… KE10     -5.57      133. fringing  crest    
#> 10 XPDC K… NA    Indone… KE11     -5.59      133. fringing  crest    
#> # … with 36 more rows, and 48 more variables: reef_exposure <chr>, tide <chr>,
#> #   current <chr>, visibility <chr>, aca_geomorphic <chr>, aca_benthic <chr>,
#> #   management <chr>, management_secondary <chr>, management_est_year <lgl>,
#> #   management_size <lgl>, management_parties <lgl>,
#> #   management_compliance <chr>, management_rules <chr>, sample_date <date>,
#> #   depth_avg <dbl>, biomass_kgha_avg <dbl>, omnivore <dbl>, piscivore <dbl>,
#> #   planktivore <dbl>, invertivore_mobile <dbl>, herbivore_detritivore <dbl>,
#> #   invertivore_sessile <dbl>, herbivore_macroalgae <dbl>, other <dbl>,
#> #   labridae <dbl>, scaridae <dbl>, siganidae <dbl>, carangidae <dbl>,
…
library(readr)

write_csv(xpdc_sample_events_clean, "xpdc_sample_events_clean.csv")

Benthic LIT data

To access Benthic LIT data, use mermaid_get_project_data() with method = "benthiclit".

mozambique <- my_projects %>%
  filter(name == "WCS Mozambique Coral Reef Monitoring")

mozambique %>%
  mermaid_get_project_data(method = "benthiclit", data = "observations")
#> # A tibble: 1,569 x 43
#>    project tags  country site  latitude longitude reef_type reef_zone
#>    <chr>   <chr> <chr>   <chr>    <dbl>     <dbl> <chr>     <chr>    
#>  1 WCS Mo… WCS … Mozamb… Barr…    -26.0      32.9 barrier   back reef
#>  2 WCS Mo… WCS … Mozamb… Barr…    -26.0      32.9 barrier   back reef
#>  3 WCS Mo… WCS … Mozamb… Barr…    -26.0      32.9 barrier   back reef
#>  4 WCS Mo… WCS … Mozamb… Barr…    -26.0      32.9 barrier   back reef
#>  5 WCS Mo… WCS … Mozamb… Barr…    -26.0      32.9 barrier   back reef
#>  6 WCS Mo… WCS … Mozamb… Barr…    -26.0      32.9 barrier   back reef
#>  7 WCS Mo… WCS … Mozamb… Barr…    -26.0      32.9 barrier   back reef
#>  8 WCS Mo… WCS … Mozamb… Barr…    -26.0      32.9 barrier   back reef
#>  9 WCS Mo… WCS … Mozamb… Barr…    -26.0      32.9 barrier   back reef
#> 10 WCS Mo… WCS … Mozamb… Barr…    -26.0      32.9 barrier   back reef
#> # … with 1,559 more rows, and 35 more variables: reef_exposure <chr>,
#> #   reef_slope <lgl>, tide <chr>, current <lgl>, visibility <lgl>,
#> #   relative_depth <lgl>, aca_geomorphic <chr>, aca_benthic <chr>,
#> #   management <chr>, management_secondary <chr>, management_est_year <int>,
#> #   management_size <lgl>, management_parties <chr>,
#> #   management_compliance <chr>, management_rules <chr>, sample_date <date>,
#> #   sample_time <chr>, depth <dbl>, transect_number <int>,
#> #   transect_length <int>, label <chr>, observers <chr>,
#> #   benthic_category <chr>, benthic_attribute <chr>, growth_form <chr>,
#> #   length <int>, total_length <int>, data_policy_benthiclit <chr>,
#> #   project_notes <chr>, site_notes <chr>, management_notes <chr>,
#> #   observation_notes <chr>, sample_unit_id <chr>, sample_event_id <chr>,
#> #   contact_link <chr>

You can access sample units and sample events the same way.

For Benthic LIT, sample units contain percent cover per sample unit, by benthic category. Sample events contain mean percent cover per sample event, by benthic category.

mozambique %>%
  mermaid_get_project_data(method = "benthiclit", data = "sampleunits")
#> # A tibble: 63 x 41
#>    project tags  country site  latitude longitude reef_type reef_zone
#>    <chr>   <chr> <chr>   <chr>    <dbl>     <dbl> <chr>     <chr>    
#>  1 WCS Mo… WCS … Mozamb… Barr…    -26.0      32.9 barrier   back reef
#>  2 WCS Mo… WCS … Mozamb… Barr…    -26.0      32.9 barrier   back reef
#>  3 WCS Mo… WCS … Mozamb… Barr…    -26.0      32.9 barrier   back reef
#>  4 WCS Mo… WCS … Mozamb… Barr…    -26.0      32.9 barrier   back reef
#>  5 WCS Mo… WCS … Mozamb… Barr…    -26.0      32.9 barrier   back reef
#>  6 WCS Mo… WCS … Mozamb… Barr…    -26.0      32.9 barrier   back reef
#>  7 WCS Mo… WCS … Mozamb… Barr…    -26.1      32.9 barrier   back reef
#>  8 WCS Mo… WCS … Mozamb… Barr…    -26.1      32.9 barrier   back reef
#>  9 WCS Mo… WCS … Mozamb… Barr…    -26.1      32.9 barrier   back reef
#> 10 WCS Mo… WCS … Mozamb… Barr…    -26.1      32.9 barrier   back reef
#> # … with 53 more rows, and 40 more variables: reef_exposure <chr>,
#> #   reef_slope <lgl>, tide <chr>, current <lgl>, visibility <lgl>,
#> #   relative_depth <lgl>, aca_geomorphic <chr>, aca_benthic <chr>,
#> #   management <chr>, management_secondary <chr>, management_est_year <int>,
#> #   management_size <lgl>, management_parties <chr>,
#> #   management_compliance <chr>, management_rules <chr>, sample_date <date>,
#> #   sample_time <chr>, depth <dbl>, transect_number <int>,
#> #   transect_length <int>, label <chr>, observers <chr>, total_length <int>,
#> #   percent_cover_by_benthic_category$`Hard coral` <dbl>, $Macroalgae <dbl>,
#> #   $`Soft coral` <dbl>, $`Turf algae` <dbl>, $`Crustose coralline
#> #   algae` <dbl>, $Sand <dbl>, $`Other invertebrates` <dbl>, $Seagrass <dbl>,
#> #   data_policy_benthiclit <chr>, project_notes <chr>, site_notes <chr>,
#> #   management_notes <chr>, sample_event_notes <chr>, sample_event_id <chr>,
#> #   sample_unit_ids <chr>, id <lgl>, contact_link <chr>

Benthic PIT data

To access Benthic LIT data, change method to “benthicpit”:

xpdc %>%
  mermaid_get_project_data(method = "benthicpit", data = "observations")
#> # A tibble: 11,100 x 44
#>    project tags  country site  latitude longitude reef_type reef_zone
#>    <chr>   <lgl> <chr>   <chr>    <dbl>     <dbl> <chr>     <chr>    
#>  1 XPDC K… NA    Indone… KE02     -5.44      133. fringing  crest    
#>  2 XPDC K… NA    Indone… KE02     -5.44      133. fringing  crest    
#>  3 XPDC K… NA    Indone… KE02     -5.44      133. fringing  crest    
#>  4 XPDC K… NA    Indone… KE02     -5.44      133. fringing  crest    
#>  5 XPDC K… NA    Indone… KE02     -5.44      133. fringing  crest    
#>  6 XPDC K… NA    Indone… KE02     -5.44      133. fringing  crest    
#>  7 XPDC K… NA    Indone… KE02     -5.44      133. fringing  crest    
#>  8 XPDC K… NA    Indone… KE02     -5.44      133. fringing  crest    
#>  9 XPDC K… NA    Indone… KE02     -5.44      133. fringing  crest    
#> 10 XPDC K… NA    Indone… KE02     -5.44      133. fringing  crest    
#> # … with 11,090 more rows, and 36 more variables: reef_exposure <chr>,
#> #   reef_slope <chr>, tide <chr>, current <chr>, visibility <chr>,
#> #   relative_depth <chr>, aca_geomorphic <chr>, aca_benthic <chr>,
#> #   management <chr>, management_secondary <chr>, management_est_year <lgl>,
#> #   management_size <lgl>, management_parties <lgl>,
#> #   management_compliance <chr>, management_rules <chr>, sample_date <date>,
#> #   sample_time <chr>, depth <dbl>, transect_number <int>,
#> #   transect_length <int>, interval_start <dbl>, interval_size <dbl>,
#> #   label <chr>, observers <chr>, interval <dbl>, benthic_category <chr>,
…
You can access sample units and sample events the same way, and the data format is the same as Benthic LIT.

You can return both sample units and sample events by setting the data argument. This will return a list of two data frames: one containing sample units, and the other sample events.

xpdc_sample_units_events <- xpdc %>%
  mermaid_get_project_data(method = "benthicpit", data = c("sampleunits", "sampleevents"))

names(xpdc_sample_units_events)
#> [1] "sampleunits"  "sampleevents"
xpdc_sample_units_events[["sampleunits"]]
#> # A tibble: 111 x 42
#>    project tags  country site  latitude longitude reef_type reef_zone
#>    <chr>   <lgl> <chr>   <chr>    <dbl>     <dbl> <chr>     <chr>    
#>  1 XPDC K… NA    Indone… KE02     -5.44      133. fringing  crest    
#>  2 XPDC K… NA    Indone… KE02     -5.44      133. fringing  crest    
#>  3 XPDC K… NA    Indone… KE02     -5.44      133. fringing  crest    
#>  4 XPDC K… NA    Indone… KE03     -5.61      132. fringing  crest    
#>  5 XPDC K… NA    Indone… KE03     -5.61      132. fringing  crest    
#>  6 XPDC K… NA    Indone… KE03     -5.61      132. fringing  crest    
#>  7 XPDC K… NA    Indone… KE04     -5.58      132. fringing  crest    
#>  8 XPDC K… NA    Indone… KE04     -5.58      132. fringing  crest    
#>  9 XPDC K… NA    Indone… KE04     -5.58      132. fringing  crest    
#> 10 XPDC K… NA    Indone… KE05     -5.47      133. fringing  crest    
#> # … with 101 more rows, and 41 more variables: reef_exposure <chr>,
#> #   reef_slope <chr>, tide <chr>, current <chr>, visibility <chr>,
#> #   relative_depth <chr>, aca_geomorphic <chr>, aca_benthic <chr>,
#> #   management <chr>, management_secondary <chr>, management_est_year <lgl>,
#> #   management_size <lgl>, management_parties <lgl>,
#> #   management_compliance <chr>, management_rules <chr>, sample_date <date>,
#> #   sample_time <chr>, depth <dbl>, transect_number <int>,
#> #   transect_length <int>, label <chr>, interval_start <dbl>,
#> #   interval_size <dbl>, observers <chr>,
…
Bleaching

To access Bleaching data, set method to “bleaching”. There are two types of observations data for the Bleaching method: Colonies Bleached and Percent Cover. These are both returned when pulling observations data, in a list:

bleaching_obs <- mozambique %>%
  mermaid_get_project_data("bleaching", "observations")

names(bleaching_obs)
#> [1] "colonies_bleached" "percent_cover"

bleaching_obs[["colonies_bleached"]]
#> # A tibble: 1,814 x 44
#>    project tags  country site  latitude longitude reef_type reef_zone
#>    <chr>   <chr> <chr>   <chr>    <dbl>     <dbl> <chr>     <chr>    
#>  1 WCS Mo… WCS … Mozamb… Aqua…    -21.8      35.5 barrier   back reef
#>  2 WCS Mo… WCS … Mozamb… Aqua…    -21.8      35.5 barrier   back reef
#>  3 WCS Mo… WCS … Mozamb… Aqua…    -21.8      35.5 barrier   back reef
#>  4 WCS Mo… WCS … Mozamb… Aqua…    -21.8      35.5 barrier   back reef
#>  5 WCS Mo… WCS … Mozamb… Aqua…    -21.8      35.5 barrier   back reef
#>  6 WCS Mo… WCS … Mozamb… Aqua…    -21.8      35.5 barrier   back reef
#>  7 WCS Mo… WCS … Mozamb… Aqua…    -21.8      35.5 barrier   back reef
#>  8 WCS Mo… WCS … Mozamb… Aqua…    -21.8      35.5 barrier   back reef
#>  9 WCS Mo… WCS … Mozamb… Aqua…    -21.8      35.5 barrier   back reef
#> 10 WCS Mo… WCS … Mozamb… Aqua…    -21.8      35.5 barrier   back reef
#> # … with 1,804 more rows, and 36 more variables: reef_exposure <chr>,
#> #   tide <lgl>, current <lgl>, visibility <lgl>, relative_depth <lgl>,
#> #   aca_geomorphic <chr>, aca_benthic <chr>, management <chr>,
#> #   management_secondary <chr>, management_est_year <int>,
#> #   management_size <lgl>, management_parties <chr>,
#> #   management_compliance <chr>, management_rules <chr>, sample_date <date>,
#> #   sample_time <chr>, depth <dbl>, quadrat_size <dbl>, label <chr>,
#> #   observers <chr>, benthic_attribute <chr>, growth_form <chr>,
#> #   count_normal <int>, count_pale <int>, count_20 <int>, count_50 <int>,
…
