…
## Usage

To access the unauthenticated API endpoints, use
`get_mermaid_endpoints()`. The results will return as a `tibble.` The
following endpoints are available: “benthicattributes”,
“fishattributes”, “fishfamilies”, “fishgenera”, “fishspecies”,
“managements”, “projects”, “sites”.

For example,

``` r
library(mermaidr)

get_mermaid_endpoint("projects")
#> # A tibble: 50 x 14
#>    id    name  countries num_sites tags  notes status data_policy_bel…
#>    <chr> <chr> <list>        <int> <lis> <chr>  <int>            <int>
#>  1 60dd… 2013… <chr [1]>        17 <chr… ""        90               10
#>  2 7376… 2014… <chr [1]>        24 <chr… "Thi…     90               10
#>  3 ac93… 2016… <chr [1]>        24 <chr… "Thi…     90               10
#>  4 e1ef… 2016… <chr [1]>         8 <chr… "Nam…     90               10
#>  5 d549… 2017… <chr [1]>        31 <chr… "Thi…     90               10
#>  6 c0ba… 2018… <chr [1]>        22 <chr… "Thi…     90               10
#>  7 170e… 2018… <chr [1]>        10 <chr… "Thi…     90               10
#>  8 95e0… 2019… <chr [1]>        44 <chr… ""        90               10
#>  9 d065… 2019… <chr [1]>        31 <chr… "Ble…     90               10
#> 10 6c6c… 2019… <chr [1]>        18 <chr… "Mac…     90               10
#> # … with 40 more rows, and 6 more variables: data_policy_benthiclit <int>,
#> #   data_policy_benthicpit <int>, data_policy_habitatcomplexity <int>,
#> #   data_policy_bleachingqc <int>, created_on <chr>, updated_on <chr>
```
…
