Interface to the MERMAID API • mermaidr
…
library(dplyr)

wcs_mozambique <- projects %>%
  filter(name == "WCS Mozambique Coral Reef Monitoring")

You can access data collected on fishbelt, benthic LIT, benthic PIT, bleaching, or habitat complexity - the main function to pull data related to your project is mermaid_get_project_data():

wcs_mozambique_fishbelt_samples <- wcs_mozambique %>%
  mermaid_get_project_data(method = "fishbelt", data = "sampleevents")

The data = "sampleevents" argument specifies that I’d like to pull data summarised to the level of a sample event, which is a site and date - we can see that this pulls information about the site and date of samples, along with aggregations like the total biomass of that site/date, and broken down by trophic group and fish family.

wcs_mozambique_fishbelt_samples
#> # A tibble: 80 x 62
#>    project tags  country site  latitude longitude reef_type reef_zone
#>    <chr>   <chr> <chr>   <chr>    <dbl>     <dbl> <chr>     <chr>    
#>  1 WCS Mo… WCS … Mozamb… Aqua…    -21.8      35.5 barrier   back reef
#>  2 WCS Mo… WCS … Mozamb… Baby…    -11.0      40.7 fringing  fore reef
#>  3 WCS Mo… WCS … Mozamb… Balu…    -22.0      35.5 patch     fore reef
#>  4 WCS Mo… WCS … Mozamb… Barr…    -26.0      32.9 barrier   back reef
#>  5 WCS Mo… WCS … Mozamb… Barr…    -26.1      32.9 barrier   back reef
#>  6 WCS Mo… WCS … Mozamb… Bunt…    -12.6      40.6 fringing  fore reef
#>  7 WCS Mo… WCS … Mozamb… Bunt…    -12.6      40.6 fringing  fore reef
#>  8 WCS Mo… WCS … Mozamb… Chec…    -26.8      32.9 patch     fore reef
#>  9 WCS Mo… WCS … Mozamb… Coli…    -12.6      40.6 fringing  fore reef
#> 10 WCS Mo… WCS … Mozamb… Dogt…    -12.5      40.6 fringing  crest    
#> # … with 70 more rows, and 54 more variables: reef_exposure <chr>, tide <lgl>,
#> #   current <lgl>, visibility <lgl>, aca_geomorphic <chr>, aca_benthic <chr>,
#> #   management <chr>, management_secondary <chr>, management_est_year <int>,
#> #   management_size <dbl>, management_parties <chr>,
#> #   management_compliance <chr>, management_rules <chr>, sample_date <date>,
#> #   depth_avg <dbl>, biomass_kgha_avg <dbl>,
#> #   biomass_kgha_trophic_group_avg_piscivore <dbl>,
#> #   biomass_kgha_trophic_group_avg_planktivore <dbl>,
#> #   biomass_kgha_trophic_group_avg_invertivore_mobile <dbl>,
#> #   biomass_kgha_trophic_group_avg_herbivore_detritivore <dbl>, …

If you’d like data related to the units of survey (for example, to transects or quadrats), it’s just a matter of changing data to “sampleunits”:

wcs_mozambique %>%
  mermaid_get_project_data(method = "fishbelt", data = "sampleunits")
#> # A tibble: 111 x 72
#>    project tags  country site  latitude longitude reef_type reef_zone
#>    <chr>   <chr> <chr>   <chr>    <dbl>     <dbl> <chr>     <chr>    
#>  1 WCS Mo… WCS … Mozamb… Aqua…    -21.8      35.5 barrier   back reef
#>  2 WCS Mo… WCS … Mozamb… Aqua…    -21.8      35.5 barrier   back reef
#>  3 WCS Mo… WCS … Mozamb… Baby…    -11.0      40.7 fringing  fore reef
#>  4 WCS Mo… WCS … Mozamb… Balu…    -22.0      35.5 patch     fore reef
#>  5 WCS Mo… WCS … Mozamb… Barr…    -26.0      32.9 barrier   back reef
#>  6 WCS Mo… WCS … Mozamb… Barr…    -26.0      32.9 barrier   back reef
#>  7 WCS Mo… WCS … Mozamb… Barr…    -26.1      32.9 barrier   back reef
#>  8 WCS Mo… WCS … Mozamb… Barr…    -26.1      32.9 barrier   back reef
#>  9 WCS Mo… WCS … Mozamb… Bunt…    -12.6      40.6 fringing  fore reef
#> 10 WCS Mo… WCS … Mozamb… Bunt…    -12.6      40.6 fringing  fore reef
#> # … with 101 more rows, and 64 more variables: reef_exposure <chr>,
#> #   reef_slope <lgl>, tide <lgl>, current <lgl>, visibility <lgl>,
#> #   relative_depth <lgl>, aca_geomorphic <chr>, aca_benthic <chr>,
#> #   management <chr>, management_secondary <chr>, management_est_year <int>,
#> #   management_size <dbl>, management_parties <chr>,
#> #   management_compliance <chr>, management_rules <chr>, sample_date <date>,
#> #   sample_time <chr>, depth <dbl>, transect_number <int>, label <chr>, …

And raw observations are available by changing it to “observations”:

wcs_mozambique %>%
  mermaid_get_project_data(method = "fishbelt", data = "observations")
#> # A tibble: 2,714 x 52
#>    project tags  country site  latitude longitude reef_type reef_zone
#>    <chr>   <chr> <chr>   <chr>    <dbl>     <dbl> <chr>     <chr>    
#>  1 WCS Mo… WCS … Mozamb… Aqua…    -21.8      35.5 barrier   back reef
#>  2 WCS Mo… WCS … Mozamb… Aqua…    -21.8      35.5 barrier   back reef
#>  3 WCS Mo… WCS … Mozamb… Aqua…    -21.8      35.5 barrier   back reef
#>  4 WCS Mo… WCS … Mozamb… Aqua…    -21.8      35.5 barrier   back reef
#>  5 WCS Mo… WCS … Mozamb… Aqua…    -21.8      35.5 barrier   back reef
#>  6 WCS Mo… WCS … Mozamb… Aqua…    -21.8      35.5 barrier   back reef
#>  7 WCS Mo… WCS … Mozamb… Aqua…    -21.8      35.5 barrier   back reef
#>  8 WCS Mo… WCS … Mozamb… Aqua…    -21.8      35.5 barrier   back reef
#>  9 WCS Mo… WCS … Mozamb… Aqua…    -21.8      35.5 barrier   back reef
#> 10 WCS Mo… WCS … Mozamb… Aqua…    -21.8      35.5 barrier   back reef
#> # … with 2,704 more rows, and 44 more variables: reef_exposure <chr>,
#> #   reef_slope <lgl>, tide <lgl>, current <lgl>, visibility <lgl>,
#> #   relative_depth <lgl>, aca_geomorphic <chr>, aca_benthic <chr>,
#> #   management <chr>, management_secondary <chr>, management_est_year <int>,
#> #   management_size <dbl>, management_parties <chr>,
#> #   management_compliance <chr>, management_rules <chr>, sample_date <date>,
#> #   sample_time <chr>, transect_length <int>, transect_width <chr>,
#> #   size_bin <chr>, …
…
