Accessing Project Data • mermaidr
…
Then, you can start to access data about your projects, like project sites via mermaid_get_project_sites():

indonesia_projects %>%
  mermaid_get_project_sites()
#> # A tibble: 112 × 13
#>    project    id       name    notes latitude longitude country reef_type reef_zone
#>    <chr>      <chr>    <chr>   <chr>    <dbl>     <dbl> <chr>   <chr>     <chr>    
#>  1 Karimunja… a7635ca… Gentin… ""       -5.86     111.  Indone… fringing  back reef
#>  2 Aceh Jaya… 5436053… Wisata… ""        5.04      95.4 Indone… fringing  fore reef
#>  3 Aceh Jaya… b7d5cf6… Rehabi… ""        4.84      95.4 Indone… fringing  fore reef
#>  4 Karimunja… 03685be… Menyaw… ""       -5.80     110.  Indone… fringing  fore reef
#>  5 Aceh Jaya… 38f75ee… Pulau … ""        5.08      95.3 Indone… fringing  back reef
#>  6 Karimunja… 21aec9f… Batu P… ""       -5.81     110.  Indone… fringing  back reef
#>  7 Karimunja… 371b3e9… Tanjun… ""       -5.83     110.  Indone… fringing  back reef
#>  8 Karimunja… 43d3d64… Legon … ""       -5.87     110.  Indone… fringing  back reef
#>  9 Karimunja… 9ec6f18… Cemara… ""       -5.80     110.  Indone… fringing  back reef
#> 10 Karimunja… e23aaba… Tanjun… ""       -5.86     110.  Indone… fringing  back reef
#> # … with 102 more rows, and 4 more variables: exposure <chr>, predecessor <chr>,
#> #   created_on <chr>, updated_on <chr>

Or the managements for your projects via mermaid_get_project_managements():

indonesia_projects %>%
  mermaid_get_project_managements()
#> # A tibble: 24 × 17
#>    project                id    name  name_secondary notes est_year no_take periodic_closure
#>    <chr>                  <chr> <chr> <chr>          <chr>    <int> <lgl>   <lgl>           
#>  1 TWP Gili Sulat Lawang  0975… Zona… "Core Zone"    ""        2013 TRUE    FALSE           
#>  2 TWP Gili Sulat Lawang  636c… Luar… "Open Access"  ""        2020 FALSE   FALSE           
#>  3 TWP Gili Sulat Lawang  bc4e… Zona… "Fisheries Ut… ""        2013 FALSE   FALSE           
#>  4 TWP Gili Sulat Lawang  f557… Zona… "Sustainable … ""        2013 FALSE   FALSE           
#>  5 Aceh Jaya Coastal Park 0f0f… Open  ""             ""        2019 FALSE   FALSE           
#>  6 Aceh Jaya Coastal Park 1498… Tour… ""             ""        2019 TRUE    FALSE           
#>  7 Aceh Jaya Coastal Park 646c… Fish… ""             ""        2019 FALSE   FALSE           
#>  8 Aceh Jaya Coastal Park a579… Aqua… ""             ""        2019 FALSE   FALSE           
#>  9 Aceh Jaya Coastal Park a803… Open… ""             ""        2019 FALSE   FALSE           
#> 10 Aceh Jaya Coastal Park cc92… Core… ""             ""        2019 TRUE    FALSE           
#> # … with 14 more rows, and 9 more variables: open_access <lgl>, size_limits <lgl>,
#> #   gear_restriction <lgl>, species_restriction <lgl>, compliance <chr>,
#> #   predecessor <lgl>, parties <chr>, created_on <chr>, updated_on <chr>
…
You can also access data on your projects’ Fish Belt, Benthic LIT, Benthic PIT, Bleaching, and Habitat Complexity methods. The details are in the following sections.

Fish Belt data

To access Fish Belt data for a project, use mermaid_get_project_data() with method = "fishbelt".

You can access individual observations (i.e., a record of each observation) by setting data = "observations":

xpdc <- my_projects %>%
  filter(name == "XPDC Kei Kecil 2018")

xpdc %>%
  mermaid_get_project_data(method = "fishbelt", data = "observations")
#> # A tibble: 3,069 × 65
#>    project tags  country site  latitude longitude reef_type reef_zone reef_exposure
#>    <chr>   <lgl> <chr>   <chr>    <dbl>     <dbl> <chr>     <chr>     <chr>        
#>  1 XPDC K… NA    Indone… KE02     -5.44      133. fringing  crest     exposed      
#>  2 XPDC K… NA    Indone… KE02     -5.44      133. fringing  crest     exposed      
#>  3 XPDC K… NA    Indone… KE02     -5.44      133. fringing  crest     exposed      
#>  4 XPDC K… NA    Indone… KE02     -5.44      133. fringing  crest     exposed      
#>  5 XPDC K… NA    Indone… KE02     -5.44      133. fringing  crest     exposed      
#>  6 XPDC K… NA    Indone… KE02     -5.44      133. fringing  crest     exposed      
#>  7 XPDC K… NA    Indone… KE02     -5.44      133. fringing  crest     exposed      
#>  8 XPDC K… NA    Indone… KE02     -5.44      133. fringing  crest     exposed      
#>  9 XPDC K… NA    Indone… KE02     -5.44      133. fringing  crest     exposed      
#> 10 XPDC K… NA    Indone… KE02     -5.44      133. fringing  crest     exposed      
#> # … with 3,059 more rows, and 56 more variables: reef_slope <chr>, tide <chr>,
#> #   current <chr>, visibility <chr>, relative_depth <chr>, aca_geomorphic <chr>,
#> #   aca_benthic <chr>, andrello_grav_nc <dbl>, andrello_sediment <dbl>,
#> #   andrello_nutrient <dbl>, andrello_pop_count <dbl>, andrello_num_ports <dbl>,
#> #   andrello_reef_value <dbl>, andrello_cumul_score <dbl>, beyer_score <dbl>,
#> #   beyer_scorecn <dbl>, beyer_scorecy <dbl>, beyer_scorepfc <dbl>,
#> #   beyer_scoreth <dbl>, beyer_scoretr <dbl>, …

You can access sample units data, which are observations aggregated to the sample units level. Fish belt sample units contain total biomass in kg/ha per sample unit, by trophic group and by fish family:

xpdc %>%
  mermaid_get_project_data("fishbelt", "sampleunits")
#> # A tibble: 246 × 79
#>    project tags  country site  latitude longitude reef_type reef_zone reef_exposure
#>    <chr>   <lgl> <chr>   <chr>    <dbl>     <dbl> <chr>     <chr>     <chr>        
#>  1 XPDC K… NA    Indone… KE02     -5.44      133. fringing  crest     exposed      
#>  2 XPDC K… NA    Indone… KE02     -5.44      133. fringing  crest     exposed      
#>  3 XPDC K… NA    Indone… KE02     -5.44      133. fringing  crest     exposed      
#>  4 XPDC K… NA    Indone… KE02     -5.44      133. fringing  crest     exposed      
#>  5 XPDC K… NA    Indone… KE02     -5.44      133. fringing  crest     exposed      
#>  6 XPDC K… NA    Indone… KE02     -5.44      133. fringing  crest     exposed      
#>  7 XPDC K… NA    Indone… KE03     -5.61      132. fringing  crest     exposed      
#>  8 XPDC K… NA    Indone… KE03     -5.61      132. fringing  crest     exposed      
#>  9 XPDC K… NA    Indone… KE03     -5.61      132. fringing  crest     exposed      
#> 10 XPDC K… NA    Indone… KE03     -5.61      132. fringing  crest     exposed      
#> # … with 236 more rows, and 70 more variables: reef_slope <chr>, tide <chr>,
#> #   current <chr>, visibility <chr>, relative_depth <chr>, aca_geomorphic <chr>,
#> #   aca_benthic <chr>, andrello_grav_nc <dbl>, andrello_sediment <dbl>,
#> #   andrello_nutrient <dbl>, andrello_pop_count <dbl>, andrello_num_ports <dbl>,
#> #   andrello_reef_value <dbl>, andrello_cumul_score <dbl>, beyer_score <dbl>,
#> #   beyer_scorecn <dbl>, beyer_scorecy <dbl>, beyer_scorepfc <dbl>,
#> #   beyer_scoreth <dbl>, beyer_scoretr <dbl>, …

And finally, sample events data, which are aggregated further, to the sample event level. Fish belt sample events contain mean total biomass in kg/ha per sample event, by trophic group and by fish family:

xpdc_sample_events <- xpdc %>%
  mermaid_get_project_data("fishbelt", "sampleevents")

xpdc_sample_events
#> # A tibble: 46 × 69
#>    project tags  country site  latitude longitude reef_type reef_zone reef_exposure
#>    <chr>   <lgl> <chr>   <chr>    <dbl>     <dbl> <chr>     <chr>     <chr>        
#>  1 XPDC K… NA    Indone… KE02     -5.44      133. fringing  crest     exposed      
#>  2 XPDC K… NA    Indone… KE03     -5.61      132. fringing  crest     exposed      
#>  3 XPDC K… NA    Indone… KE04     -5.58      132. fringing  crest     exposed      
#>  4 XPDC K… NA    Indone… KE05     -5.47      133. fringing  crest     exposed      
#>  5 XPDC K… NA    Indone… KE06     -5.52      132. fringing  crest     exposed      
#>  6 XPDC K… NA    Indone… KE07     -5.57      133. fringing  crest     exposed      
#>  7 XPDC K… NA    Indone… KE08     -5.55      133. fringing  crest     exposed      
#>  8 XPDC K… NA    Indone… KE09     -5.60      133. fringing  fore reef semi-exposed 
#>  9 XPDC K… NA    Indone… KE10     -5.57      133. fringing  crest     exposed      
#> 10 XPDC K… NA    Indone… KE11     -5.59      133. fringing  crest     exposed      
#> # … with 36 more rows, and 60 more variables: tide <chr>, current <chr>,
#> #   visibility <chr>, aca_geomorphic <chr>, aca_benthic <chr>,
#> #   andrello_grav_nc <dbl>, andrello_sediment <dbl>, andrello_nutrient <dbl>,
#> #   andrello_pop_count <dbl>, andrello_num_ports <dbl>, andrello_reef_value <dbl>,
#> #   andrello_cumul_score <dbl>, beyer_score <dbl>, beyer_scorecn <dbl>,
#> #   beyer_scorecy <dbl>, beyer_scorepfc <dbl>, beyer_scoreth <dbl>,
#> #   beyer_scoretr <dbl>, management <chr>, management_secondary <chr>, …

Benthic LIT data

To access Benthic LIT data, use mermaid_get_project_data() with method = "benthiclit".

mozambique <- my_projects %>%
  filter(name == "WCS Mozambique Coral Reef Monitoring")

mozambique %>%
  mermaid_get_project_data(method = "benthiclit", data = "observations")
#> # A tibble: 1,569 × 56
#>    project tags  country site  latitude longitude reef_type reef_zone reef_exposure
#>    <chr>   <chr> <chr>   <chr>    <dbl>     <dbl> <chr>     <chr>     <chr>        
#>  1 WCS Mo… WCS … Mozamb… Barr…    -26.0      32.9 barrier   back reef sheltered    
#>  2 WCS Mo… WCS … Mozamb… Barr…    -26.0      32.9 barrier   back reef sheltered    
#>  3 WCS Mo… WCS … Mozamb… Barr…    -26.0      32.9 barrier   back reef sheltered    
#>  4 WCS Mo… WCS … Mozamb… Barr…    -26.0      32.9 barrier   back reef sheltered    
#>  5 WCS Mo… WCS … Mozamb… Barr…    -26.0      32.9 barrier   back reef sheltered    
#>  6 WCS Mo… WCS … Mozamb… Barr…    -26.0      32.9 barrier   back reef sheltered    
#>  7 WCS Mo… WCS … Mozamb… Barr…    -26.0      32.9 barrier   back reef sheltered    
#>  8 WCS Mo… WCS … Mozamb… Barr…    -26.0      32.9 barrier   back reef sheltered    
#>  9 WCS Mo… WCS … Mozamb… Barr…    -26.0      32.9 barrier   back reef sheltered    
#> 10 WCS Mo… WCS … Mozamb… Barr…    -26.0      32.9 barrier   back reef sheltered    
#> # … with 1,559 more rows, and 47 more variables: reef_slope <lgl>, tide <chr>,
#> #   current <lgl>, visibility <lgl>, relative_depth <lgl>, aca_geomorphic <chr>,
#> #   aca_benthic <chr>, andrello_grav_nc <dbl>, andrello_sediment <dbl>,
#> #   andrello_nutrient <dbl>, andrello_pop_count <dbl>, andrello_num_ports <dbl>,
#> #   andrello_reef_value <dbl>, andrello_cumul_score <dbl>, beyer_score <dbl>,
#> #   beyer_scorecn <dbl>, beyer_scorecy <dbl>, beyer_scorepfc <dbl>,
#> #   beyer_scoreth <dbl>, beyer_scoretr <dbl>, …

You can access sample units and sample events the same way.

For Benthic LIT, sample units contain percent cover per sample unit, by benthic category. Sample events contain mean percent cover per sample event, by benthic category.

mozambique %>%
  mermaid_get_project_data(method = "benthiclit", data = "sampleunits")
#> # A tibble: 63 × 65
#>    project tags  country site  latitude longitude reef_type reef_zone reef_exposure
#>    <chr>   <chr> <chr>   <chr>    <dbl>     <dbl> <chr>     <chr>     <chr>        
#>  1 WCS Mo… WCS … Mozamb… Barr…    -26.0      32.9 barrier   back reef sheltered    
#>  2 WCS Mo… WCS … Mozamb… Barr…    -26.0      32.9 barrier   back reef sheltered    
#>  3 WCS Mo… WCS … Mozamb… Barr…    -26.0      32.9 barrier   back reef sheltered    
#>  4 WCS Mo… WCS … Mozamb… Barr…    -26.0      32.9 barrier   back reef sheltered    
#>  5 WCS Mo… WCS … Mozamb… Barr…    -26.0      32.9 barrier   back reef sheltered    
#>  6 WCS Mo… WCS … Mozamb… Barr…    -26.0      32.9 barrier   back reef sheltered    
#>  7 WCS Mo… WCS … Mozamb… Barr…    -26.1      32.9 barrier   back reef sheltered    
#>  8 WCS Mo… WCS … Mozamb… Barr…    -26.1      32.9 barrier   back reef sheltered    
#>  9 WCS Mo… WCS … Mozamb… Barr…    -26.1      32.9 barrier   back reef sheltered    
#> 10 WCS Mo… WCS … Mozamb… Barr…    -26.1      32.9 barrier   back reef sheltered    
#> # … with 53 more rows, and 56 more variables: reef_slope <lgl>, tide <chr>,
#> #   current <lgl>, visibility <lgl>, relative_depth <lgl>, aca_geomorphic <chr>,
#> #   aca_benthic <chr>, andrello_grav_nc <dbl>, andrello_sediment <dbl>,
#> #   andrello_nutrient <dbl>, andrello_pop_count <dbl>, andrello_num_ports <dbl>,
#> #   andrello_reef_value <dbl>, andrello_cumul_score <dbl>, beyer_score <dbl>,
#> #   beyer_scorecn <dbl>, beyer_scorecy <dbl>, beyer_scorepfc <dbl>,
#> #   beyer_scoreth <dbl>, beyer_scoretr <dbl>, …

Benthic PIT data

To access Benthic LIT data, change method to “benthicpit”:

xpdc %>%
  mermaid_get_project_data(method = "benthicpit", data = "observations")
#> # A tibble: 11,100 × 57
#>    project tags  country site  latitude longitude reef_type reef_zone reef_exposure
#>    <chr>   <lgl> <chr>   <chr>    <dbl>     <dbl> <chr>     <chr>     <chr>        
#>  1 XPDC K… NA    Indone… KE02     -5.44      133. fringing  crest     exposed      
#>  2 XPDC K… NA    Indone… KE02     -5.44      133. fringing  crest     exposed      
#>  3 XPDC K… NA    Indone… KE02     -5.44      133. fringing  crest     exposed      
#>  4 XPDC K… NA    Indone… KE02     -5.44      133. fringing  crest     exposed      
#>  5 XPDC K… NA    Indone… KE02     -5.44      133. fringing  crest     exposed      
#>  6 XPDC K… NA    Indone… KE02     -5.44      133. fringing  crest     exposed      
#>  7 XPDC K… NA    Indone… KE02     -5.44      133. fringing  crest     exposed      
#>  8 XPDC K… NA    Indone… KE02     -5.44      133. fringing  crest     exposed      
#>  9 XPDC K… NA    Indone… KE02     -5.44      133. fringing  crest     exposed      
#> 10 XPDC K… NA    Indone… KE02     -5.44      133. fringing  crest     exposed      
#> # … with 11,090 more rows, and 48 more variables: reef_slope <chr>, tide <chr>,
#> #   current <chr>, visibility <chr>, relative_depth <chr>, aca_geomorphic <chr>,
#> #   aca_benthic <chr>, andrello_grav_nc <dbl>, andrello_sediment <dbl>,
#> #   andrello_nutrient <dbl>, andrello_pop_count <dbl>, andrello_num_ports <dbl>,
#> #   andrello_reef_value <dbl>, andrello_cumul_score <dbl>, beyer_score <dbl>,
#> #   beyer_scorecn <dbl>, beyer_scorecy <dbl>, beyer_scorepfc <dbl>,
#> #   beyer_scoreth <dbl>, beyer_scoretr <dbl>, …

You can access sample units and sample events the same way, and the data format is the same as Benthic LIT.

You can return both sample units and sample events by setting the data argument. This will return a list of two data frames: one containing sample units, and the other sample events.

xpdc_sample_units_events <- xpdc %>%
  mermaid_get_project_data(method = "benthicpit", data = c("sampleunits", "sampleevents"))

names(xpdc_sample_units_events)
#> [1] "sampleunits"  "sampleevents"
xpdc_sample_units_events[["sampleunits"]]
#> # A tibble: 111 × 66
#>    project tags  country site  latitude longitude reef_type reef_zone reef_exposure
#>    <chr>   <lgl> <chr>   <chr>    <dbl>     <dbl> <chr>     <chr>     <chr>        
#>  1 XPDC K… NA    Indone… KE02     -5.44      133. fringing  crest     exposed      
#>  2 XPDC K… NA    Indone… KE02     -5.44      133. fringing  crest     exposed      
#>  3 XPDC K… NA    Indone… KE02     -5.44      133. fringing  crest     exposed      
#>  4 XPDC K… NA    Indone… KE03     -5.61      132. fringing  crest     exposed      
#>  5 XPDC K… NA    Indone… KE03     -5.61      132. fringing  crest     exposed      
#>  6 XPDC K… NA    Indone… KE03     -5.61      132. fringing  crest     exposed      
#>  7 XPDC K… NA    Indone… KE04     -5.58      132. fringing  crest     exposed      
#>  8 XPDC K… NA    Indone… KE04     -5.58      132. fringing  crest     exposed      
#>  9 XPDC K… NA    Indone… KE04     -5.58      132. fringing  crest     exposed      
#> 10 XPDC K… NA    Indone… KE05     -5.47      133. fringing  crest     exposed      
#> # … with 101 more rows, and 57 more variables: reef_slope <chr>, tide <chr>,
#> #   current <chr>, visibility <chr>, relative_depth <chr>, aca_geomorphic <chr>,
#> #   aca_benthic <chr>, andrello_grav_nc <dbl>, andrello_sediment <dbl>,
#> #   andrello_nutrient <dbl>, andrello_pop_count <dbl>, andrello_num_ports <dbl>,
#> #   andrello_reef_value <dbl>, andrello_cumul_score <dbl>, beyer_score <dbl>,
#> #   beyer_scorecn <dbl>, beyer_scorecy <dbl>, beyer_scorepfc <dbl>,
#> #   beyer_scoreth <dbl>, beyer_scoretr <dbl>, …

Bleaching

To access Bleaching data, set method to “bleaching”. There are two types of observations data for the Bleaching method: Colonies Bleached and Percent Cover. These are both returned when pulling observations data, in a list:

bleaching_obs <- mozambique %>%
  mermaid_get_project_data("bleaching", "observations")

names(bleaching_obs)
#> [1] "colonies_bleached" "percent_cover"

bleaching_obs[["colonies_bleached"]]
#> # A tibble: 1,814 × 57
#>    project tags  country site  latitude longitude reef_type reef_zone reef_exposure
#>    <chr>   <chr> <chr>   <chr>    <dbl>     <dbl> <chr>     <chr>     <chr>        
#>  1 WCS Mo… WCS … Mozamb… Aqua…    -21.8      35.5 barrier   back reef semi-exposed 
#>  2 WCS Mo… WCS … Mozamb… Aqua…    -21.8      35.5 barrier   back reef semi-exposed 
#>  3 WCS Mo… WCS … Mozamb… Aqua…    -21.8      35.5 barrier   back reef semi-exposed 
#>  4 WCS Mo… WCS … Mozamb… Aqua…    -21.8      35.5 barrier   back reef semi-exposed 
#>  5 WCS Mo… WCS … Mozamb… Aqua…    -21.8      35.5 barrier   back reef semi-exposed 
#>  6 WCS Mo… WCS … Mozamb… Aqua…    -21.8      35.5 barrier   back reef semi-exposed 
#>  7 WCS Mo… WCS … Mozamb… Aqua…    -21.8      35.5 barrier   back reef semi-exposed 
#>  8 WCS Mo… WCS … Mozamb… Aqua…    -21.8      35.5 barrier   back reef semi-exposed 
#>  9 WCS Mo… WCS … Mozamb… Aqua…    -21.8      35.5 barrier   back reef semi-exposed 
#> 10 WCS Mo… WCS … Mozamb… Aqua…    -21.8      35.5 barrier   back reef semi-exposed 
#> # … with 1,804 more rows, and 48 more variables: tide <lgl>, current <lgl>,
#> #   visibility <lgl>, relative_depth <lgl>, aca_geomorphic <chr>,
#> #   aca_benthic <chr>, andrello_grav_nc <dbl>, andrello_sediment <dbl>,
#> #   andrello_nutrient <dbl>, andrello_pop_count <dbl>, andrello_num_ports <dbl>,
#> #   andrello_reef_value <dbl>, andrello_cumul_score <dbl>, beyer_score <dbl>,
#> #   beyer_scorecn <dbl>, beyer_scorecy <dbl>, beyer_scorepfc <dbl>,
#> #   beyer_scoreth <dbl>, beyer_scoretr <dbl>, management <chr>, …
…
