…
Then, you can start to access data about your projects, like project sites via `mermaid_get_project_sites()`:


```r
indonesia_projects %>%
  mermaid_get_project_sites()
#> # A tibble: 112 x 13
#>    project    id        name    notes latitude longitude country reef_type reef_zone exposure
#>    <chr>      <chr>     <chr>   <chr>    <dbl>     <dbl> <chr>   <chr>     <chr>     <chr>   
#>  1 Karimunja… a7635ca1… Gentin… ""       -5.86     111.  Indone… fringing  back reef shelter…
#>  2 Aceh Jaya… 54360533… Wisata… ""        5.04      95.4 Indone… fringing  fore reef shelter…
#>  3 Aceh Jaya… b7d5cf60… Rehabi… ""        4.84      95.4 Indone… fringing  fore reef shelter…
#>  4 Karimunja… 03685be7… Menyaw… ""       -5.80     110.  Indone… fringing  fore reef shelter…
#>  5 Aceh Jaya… 38f75ee4… Pulau … ""        5.08      95.3 Indone… fringing  back reef semi-ex…
#>  6 Karimunja… 21aec9f0… Batu P… ""       -5.81     110.  Indone… fringing  back reef semi-ex…
#>  7 Karimunja… 371b3e9a… Tanjun… ""       -5.83     110.  Indone… fringing  back reef semi-ex…
#>  8 Karimunja… 43d3d64e… Legon … ""       -5.87     110.  Indone… fringing  back reef semi-ex…
#>  9 Karimunja… 9ec6f187… Cemara… ""       -5.80     110.  Indone… fringing  back reef semi-ex…
#> 10 Karimunja… e23aaba8… Tanjun… ""       -5.86     110.  Indone… fringing  back reef semi-ex…
#> # … with 102 more rows, and 3 more variables: predecessor <chr>, created_on <chr>,
#> #   updated_on <chr>
```

Or the managements for your projects via `mermaid_get_project_managements()`:


```r
indonesia_projects %>%
  mermaid_get_project_managements()
#> # A tibble: 24 x 17
#>    project  id      name   name_secondary notes est_year no_take periodic_closure open_access
#>    <chr>    <chr>   <chr>  <chr>          <chr>    <int> <lgl>   <lgl>            <lgl>      
#>  1 TWP Gil… 0975a7… Zona … "Core Zone"    ""        2013 TRUE    FALSE            FALSE      
#>  2 TWP Gil… 636c3e… Luar … "Open Access"  ""        2020 FALSE   FALSE            TRUE       
#>  3 TWP Gil… bc4ecf… Zona … "Fisheries Ut… ""        2013 FALSE   FALSE            FALSE      
#>  4 TWP Gil… f557e8… Zona … "Sustainable … ""        2013 FALSE   FALSE            FALSE      
#>  5 Aceh Ja… 0f0f89… Open   ""             ""        2019 FALSE   FALSE            TRUE       
#>  6 Aceh Ja… 149832… Touri… ""             ""        2019 TRUE    FALSE            FALSE      
#>  7 Aceh Ja… 646c77… Fishe… ""             ""        2019 FALSE   FALSE            FALSE      
#>  8 Aceh Ja… a57968… Aquac… ""             ""        2019 FALSE   FALSE            FALSE      
#>  9 Aceh Ja… a80364… Open … ""             ""        2019 FALSE   FALSE            TRUE       
#> 10 Aceh Ja… cc9249… Core … ""             ""        2019 TRUE    FALSE            FALSE      
#> # … with 14 more rows, and 8 more variables: size_limits <lgl>, gear_restriction <lgl>,
#> #   species_restriction <lgl>, compliance <chr>, predecessor <lgl>, parties <chr>,
#> #   created_on <chr>, updated_on <chr>
```
…
#### Fish Belt data

To access Fish Belt data for a project, use `mermaid_get_project_data()` with `method = "fishbelt"`. 

You can access individual observations (i.e., a record of each observation) by setting `data = "observations"`:


```r
xpdc <- my_projects %>%
  filter(name == "XPDC Kei Kecil 2018")

xpdc %>%
  mermaid_get_project_data(method = "fishbelt", data = "observations")
#> # A tibble: 3,069 x 52
#>    project          tags  country  site  latitude longitude reef_type reef_zone reef_exposure
#>    <chr>            <lgl> <chr>    <chr>    <dbl>     <dbl> <chr>     <chr>     <chr>        
#>  1 XPDC Kei Kecil … NA    Indones… KE02     -5.44      133. fringing  crest     exposed      
#>  2 XPDC Kei Kecil … NA    Indones… KE02     -5.44      133. fringing  crest     exposed      
#>  3 XPDC Kei Kecil … NA    Indones… KE02     -5.44      133. fringing  crest     exposed      
#>  4 XPDC Kei Kecil … NA    Indones… KE02     -5.44      133. fringing  crest     exposed      
#>  5 XPDC Kei Kecil … NA    Indones… KE02     -5.44      133. fringing  crest     exposed      
#>  6 XPDC Kei Kecil … NA    Indones… KE02     -5.44      133. fringing  crest     exposed      
#>  7 XPDC Kei Kecil … NA    Indones… KE02     -5.44      133. fringing  crest     exposed      
#>  8 XPDC Kei Kecil … NA    Indones… KE02     -5.44      133. fringing  crest     exposed      
#>  9 XPDC Kei Kecil … NA    Indones… KE02     -5.44      133. fringing  crest     exposed      
#> 10 XPDC Kei Kecil … NA    Indones… KE02     -5.44      133. fringing  crest     exposed      
#> # … with 3,059 more rows, and 43 more variables: reef_slope <chr>, tide <chr>,
#> #   current <chr>, visibility <chr>, relative_depth <chr>, aca_geomorphic <chr>,
#> #   aca_benthic <chr>, management <chr>, management_secondary <chr>,
#> #   management_est_year <lgl>, management_size <lgl>, management_parties <lgl>,
#> #   management_compliance <chr>, management_rules <chr>, sample_date <date>,
#> #   sample_time <chr>, transect_length <int>, transect_width <chr>, size_bin <chr>,
#> #   observers <chr>, …
```

You can access sample units data, which are observations aggregated to the sample units level. Fish belt sample units contain total biomass in kg/ha per sample unit, by trophic group and by fish family:


```r
xpdc %>%
  mermaid_get_project_data("fishbelt", "sampleunits")
#> # A tibble: 246 x 66
#>    project          tags  country  site  latitude longitude reef_type reef_zone reef_exposure
#>    <chr>            <lgl> <chr>    <chr>    <dbl>     <dbl> <chr>     <chr>     <chr>        
#>  1 XPDC Kei Kecil … NA    Indones… KE02     -5.44      133. fringing  crest     exposed      
#>  2 XPDC Kei Kecil … NA    Indones… KE02     -5.44      133. fringing  crest     exposed      
#>  3 XPDC Kei Kecil … NA    Indones… KE02     -5.44      133. fringing  crest     exposed      
#>  4 XPDC Kei Kecil … NA    Indones… KE02     -5.44      133. fringing  crest     exposed      
#>  5 XPDC Kei Kecil … NA    Indones… KE02     -5.44      133. fringing  crest     exposed      
#>  6 XPDC Kei Kecil … NA    Indones… KE02     -5.44      133. fringing  crest     exposed      
#>  7 XPDC Kei Kecil … NA    Indones… KE03     -5.61      132. fringing  crest     exposed      
#>  8 XPDC Kei Kecil … NA    Indones… KE03     -5.61      132. fringing  crest     exposed      
#>  9 XPDC Kei Kecil … NA    Indones… KE03     -5.61      132. fringing  crest     exposed      
#> 10 XPDC Kei Kecil … NA    Indones… KE03     -5.61      132. fringing  crest     exposed      
#> # … with 236 more rows, and 57 more variables: reef_slope <chr>, tide <chr>, current <chr>,
#> #   visibility <chr>, relative_depth <chr>, aca_geomorphic <chr>, aca_benthic <chr>,
#> #   management <chr>, management_secondary <chr>, management_est_year <lgl>,
#> #   management_size <lgl>, management_parties <lgl>, management_compliance <chr>,
#> #   management_rules <chr>, sample_date <date>, sample_time <chr>, depth <dbl>,
#> #   transect_number <int>, label <chr>, size_bin <chr>, …
```

And finally, sample events data, which are aggregated further, to the sample event level. Fish belt sample events contain *mean* total biomass in kg/ha per sample event, by trophic group and by fish family:


```r
xpdc_sample_events <- xpdc %>%
  mermaid_get_project_data("fishbelt", "sampleevents")

xpdc_sample_events
#> # A tibble: 46 x 56
#>    project   tags  country site  latitude longitude reef_type reef_zone reef_exposure tide   
#>    <chr>     <lgl> <chr>   <chr>    <dbl>     <dbl> <chr>     <chr>     <chr>         <chr>  
#>  1 XPDC Kei… NA    Indone… KE02     -5.44      133. fringing  crest     exposed       rising 
#>  2 XPDC Kei… NA    Indone… KE03     -5.61      132. fringing  crest     exposed       fallin…
#>  3 XPDC Kei… NA    Indone… KE04     -5.58      132. fringing  crest     exposed       rising 
#>  4 XPDC Kei… NA    Indone… KE05     -5.47      133. fringing  crest     exposed       rising 
#>  5 XPDC Kei… NA    Indone… KE06     -5.52      132. fringing  crest     exposed       fallin…
#>  6 XPDC Kei… NA    Indone… KE07     -5.57      133. fringing  crest     exposed       falling
#>  7 XPDC Kei… NA    Indone… KE08     -5.55      133. fringing  crest     exposed       falling
#>  8 XPDC Kei… NA    Indone… KE09     -5.60      133. fringing  fore reef semi-exposed  falling
#>  9 XPDC Kei… NA    Indone… KE10     -5.57      133. fringing  crest     exposed       rising 
#> 10 XPDC Kei… NA    Indone… KE11     -5.59      133. fringing  crest     exposed       rising 
#> # … with 36 more rows, and 46 more variables: current <chr>, visibility <chr>,
#> #   aca_geomorphic <chr>, aca_benthic <chr>, management <chr>, management_secondary <chr>,
#> #   management_est_year <lgl>, management_size <lgl>, management_parties <lgl>,
#> #   management_compliance <chr>, management_rules <chr>, sample_date <date>,
#> #   depth_avg <dbl>, biomass_kgha_avg <dbl>, biomass_kgha_trophic_group_avg_omnivore <dbl>,
#> #   biomass_kgha_trophic_group_avg_piscivore <dbl>,
#> #   biomass_kgha_trophic_group_avg_planktivore <dbl>,
#> #   biomass_kgha_trophic_group_avg_invertivore_mobile <dbl>,
#> #   biomass_kgha_trophic_group_avg_herbivore_detritivore <dbl>,
#> #   biomass_kgha_trophic_group_avg_invertivore_sessile <dbl>, …
```

#### Benthic LIT data

To access Benthic LIT data, use `mermaid_get_project_data()` with `method = "benthiclit"`. 


```r
mozambique <- my_projects %>%
  filter(name == "WCS Mozambique Coral Reef Monitoring")

mozambique %>%
  mermaid_get_project_data(method = "benthiclit", data = "observations")
#> # A tibble: 1,569 x 43
#>    project      tags    country site     latitude longitude reef_type reef_zone reef_exposure
#>    <chr>        <chr>   <chr>   <chr>       <dbl>     <dbl> <chr>     <chr>     <chr>        
#>  1 WCS Mozambi… WCS Mo… Mozamb… Barreir…    -26.0      32.9 barrier   back reef sheltered    
#>  2 WCS Mozambi… WCS Mo… Mozamb… Barreir…    -26.0      32.9 barrier   back reef sheltered    
#>  3 WCS Mozambi… WCS Mo… Mozamb… Barreir…    -26.0      32.9 barrier   back reef sheltered    
#>  4 WCS Mozambi… WCS Mo… Mozamb… Barreir…    -26.0      32.9 barrier   back reef sheltered    
#>  5 WCS Mozambi… WCS Mo… Mozamb… Barreir…    -26.0      32.9 barrier   back reef sheltered    
#>  6 WCS Mozambi… WCS Mo… Mozamb… Barreir…    -26.0      32.9 barrier   back reef sheltered    
#>  7 WCS Mozambi… WCS Mo… Mozamb… Barreir…    -26.0      32.9 barrier   back reef sheltered    
#>  8 WCS Mozambi… WCS Mo… Mozamb… Barreir…    -26.0      32.9 barrier   back reef sheltered    
#>  9 WCS Mozambi… WCS Mo… Mozamb… Barreir…    -26.0      32.9 barrier   back reef sheltered    
#> 10 WCS Mozambi… WCS Mo… Mozamb… Barreir…    -26.0      32.9 barrier   back reef sheltered    
#> # … with 1,559 more rows, and 34 more variables: reef_slope <lgl>, tide <chr>,
#> #   current <lgl>, visibility <lgl>, relative_depth <lgl>, aca_geomorphic <chr>,
#> #   aca_benthic <chr>, management <chr>, management_secondary <chr>,
#> #   management_est_year <int>, management_size <lgl>, management_parties <chr>,
#> #   management_compliance <chr>, management_rules <chr>, sample_date <date>,
#> #   sample_time <chr>, depth <dbl>, transect_number <int>, transect_length <int>,
#> #   label <chr>, …
```

You can access sample units and sample events the same way. 

For Benthic LIT, sample units contain percent cover per sample unit, by benthic category. Sample *events* contain *mean* percent cover per sample event, by benthic category. 


```r
mozambique %>%
  mermaid_get_project_data(method = "benthiclit", data = "sampleunits")
#> # A tibble: 63 x 51
#>    project      tags    country site     latitude longitude reef_type reef_zone reef_exposure
#>    <chr>        <chr>   <chr>   <chr>       <dbl>     <dbl> <chr>     <chr>     <chr>        
#>  1 WCS Mozambi… WCS Mo… Mozamb… Barreir…    -26.0      32.9 barrier   back reef sheltered    
#>  2 WCS Mozambi… WCS Mo… Mozamb… Barreir…    -26.0      32.9 barrier   back reef sheltered    
#>  3 WCS Mozambi… WCS Mo… Mozamb… Barreir…    -26.0      32.9 barrier   back reef sheltered    
#>  4 WCS Mozambi… WCS Mo… Mozamb… Barreir…    -26.0      32.9 barrier   back reef sheltered    
#>  5 WCS Mozambi… WCS Mo… Mozamb… Barreir…    -26.0      32.9 barrier   back reef sheltered    
#>  6 WCS Mozambi… WCS Mo… Mozamb… Barreir…    -26.0      32.9 barrier   back reef sheltered    
#>  7 WCS Mozambi… WCS Mo… Mozamb… Barreir…    -26.1      32.9 barrier   back reef sheltered    
#>  8 WCS Mozambi… WCS Mo… Mozamb… Barreir…    -26.1      32.9 barrier   back reef sheltered    
#>  9 WCS Mozambi… WCS Mo… Mozamb… Barreir…    -26.1      32.9 barrier   back reef sheltered    
#> 10 WCS Mozambi… WCS Mo… Mozamb… Barreir…    -26.1      32.9 barrier   back reef sheltered    
#> # … with 53 more rows, and 42 more variables: reef_slope <lgl>, tide <chr>, current <lgl>,
#> #   visibility <lgl>, relative_depth <lgl>, aca_geomorphic <chr>, aca_benthic <chr>,
#> #   management <chr>, management_secondary <chr>, management_est_year <int>,
#> #   management_size <lgl>, management_parties <chr>, management_compliance <chr>,
#> #   management_rules <chr>, sample_date <date>, sample_time <chr>, depth <dbl>,
#> #   transect_number <int>, transect_length <int>, label <chr>, …
```

#### Benthic PIT data

To access Benthic LIT data, change `method` to "benthicpit":


```r
xpdc %>%
  mermaid_get_project_data(method = "benthicpit", data = "observations")
#> # A tibble: 11,100 x 44
#>    project          tags  country  site  latitude longitude reef_type reef_zone reef_exposure
#>    <chr>            <lgl> <chr>    <chr>    <dbl>     <dbl> <chr>     <chr>     <chr>        
#>  1 XPDC Kei Kecil … NA    Indones… KE02     -5.44      133. fringing  crest     exposed      
#>  2 XPDC Kei Kecil … NA    Indones… KE02     -5.44      133. fringing  crest     exposed      
#>  3 XPDC Kei Kecil … NA    Indones… KE02     -5.44      133. fringing  crest     exposed      
#>  4 XPDC Kei Kecil … NA    Indones… KE02     -5.44      133. fringing  crest     exposed      
#>  5 XPDC Kei Kecil … NA    Indones… KE02     -5.44      133. fringing  crest     exposed      
#>  6 XPDC Kei Kecil … NA    Indones… KE02     -5.44      133. fringing  crest     exposed      
#>  7 XPDC Kei Kecil … NA    Indones… KE02     -5.44      133. fringing  crest     exposed      
#>  8 XPDC Kei Kecil … NA    Indones… KE02     -5.44      133. fringing  crest     exposed      
#>  9 XPDC Kei Kecil … NA    Indones… KE02     -5.44      133. fringing  crest     exposed      
#> 10 XPDC Kei Kecil … NA    Indones… KE02     -5.44      133. fringing  crest     exposed      
#> # … with 11,090 more rows, and 35 more variables: reef_slope <chr>, tide <chr>,
#> #   current <chr>, visibility <chr>, relative_depth <chr>, aca_geomorphic <chr>,
#> #   aca_benthic <chr>, management <chr>, management_secondary <chr>,
#> #   management_est_year <lgl>, management_size <lgl>, management_parties <lgl>,
#> #   management_compliance <chr>, management_rules <chr>, sample_date <date>,
#> #   sample_time <chr>, depth <dbl>, transect_number <int>, transect_length <int>,
#> #   interval_start <dbl>, …
```

You can access sample units and sample events the same way, and the data format is the same as Benthic LIT.

You can return both sample units and sample events by setting the `data` argument. This will return a list of two data frames: one containing sample units, and the other sample events.


```r
xpdc_sample_units_events <- xpdc %>%
  mermaid_get_project_data(method = "benthicpit", data = c("sampleunits", "sampleevents"))

names(xpdc_sample_units_events)
#> [1] "sampleunits"  "sampleevents"
xpdc_sample_units_events[["sampleunits"]]
#> # A tibble: 111 x 52
#>    project          tags  country  site  latitude longitude reef_type reef_zone reef_exposure
#>    <chr>            <lgl> <chr>    <chr>    <dbl>     <dbl> <chr>     <chr>     <chr>        
#>  1 XPDC Kei Kecil … NA    Indones… KE02     -5.44      133. fringing  crest     exposed      
#>  2 XPDC Kei Kecil … NA    Indones… KE02     -5.44      133. fringing  crest     exposed      
#>  3 XPDC Kei Kecil … NA    Indones… KE02     -5.44      133. fringing  crest     exposed      
#>  4 XPDC Kei Kecil … NA    Indones… KE03     -5.61      132. fringing  crest     exposed      
#>  5 XPDC Kei Kecil … NA    Indones… KE03     -5.61      132. fringing  crest     exposed      
#>  6 XPDC Kei Kecil … NA    Indones… KE03     -5.61      132. fringing  crest     exposed      
#>  7 XPDC Kei Kecil … NA    Indones… KE04     -5.58      132. fringing  crest     exposed      
#>  8 XPDC Kei Kecil … NA    Indones… KE04     -5.58      132. fringing  crest     exposed      
#>  9 XPDC Kei Kecil … NA    Indones… KE04     -5.58      132. fringing  crest     exposed      
#> 10 XPDC Kei Kecil … NA    Indones… KE05     -5.47      133. fringing  crest     exposed      
#> # … with 101 more rows, and 43 more variables: reef_slope <chr>, tide <chr>, current <chr>,
#> #   visibility <chr>, relative_depth <chr>, aca_geomorphic <chr>, aca_benthic <chr>,
#> #   management <chr>, management_secondary <chr>, management_est_year <lgl>,
#> #   management_size <lgl>, management_parties <lgl>, management_compliance <chr>,
#> #   management_rules <chr>, sample_date <date>, sample_time <chr>, depth <dbl>,
#> #   transect_number <int>, transect_length <int>, label <chr>, …
```

#### Bleaching

To access Bleaching data, set `method` to "bleaching". There are two types of observations data for the Bleaching method: Colonies Bleached and Percent Cover. These are both returned when pulling observations data, in a list:


```r
bleaching_obs <- mozambique %>%
  mermaid_get_project_data("bleaching", "observations")

names(bleaching_obs)
#> [1] "colonies_bleached" "percent_cover"

bleaching_obs[["colonies_bleached"]]
#> # A tibble: 1,814 x 44
#>    project    tags   country site  latitude longitude reef_type reef_zone reef_exposure tide 
#>    <chr>      <chr>  <chr>   <chr>    <dbl>     <dbl> <chr>     <chr>     <chr>         <lgl>
#>  1 WCS Mozam… WCS M… Mozamb… Aqua…    -21.8      35.5 barrier   back reef semi-exposed  NA   
#>  2 WCS Mozam… WCS M… Mozamb… Aqua…    -21.8      35.5 barrier   back reef semi-exposed  NA   
#>  3 WCS Mozam… WCS M… Mozamb… Aqua…    -21.8      35.5 barrier   back reef semi-exposed  NA   
#>  4 WCS Mozam… WCS M… Mozamb… Aqua…    -21.8      35.5 barrier   back reef semi-exposed  NA   
#>  5 WCS Mozam… WCS M… Mozamb… Aqua…    -21.8      35.5 barrier   back reef semi-exposed  NA   
#>  6 WCS Mozam… WCS M… Mozamb… Aqua…    -21.8      35.5 barrier   back reef semi-exposed  NA   
#>  7 WCS Mozam… WCS M… Mozamb… Aqua…    -21.8      35.5 barrier   back reef semi-exposed  NA   
#>  8 WCS Mozam… WCS M… Mozamb… Aqua…    -21.8      35.5 barrier   back reef semi-exposed  NA   
#>  9 WCS Mozam… WCS M… Mozamb… Aqua…    -21.8      35.5 barrier   back reef semi-exposed  NA   
#> 10 WCS Mozam… WCS M… Mozamb… Aqua…    -21.8      35.5 barrier   back reef semi-exposed  NA   
#> # … with 1,804 more rows, and 34 more variables: current <lgl>, visibility <lgl>,
#> #   relative_depth <lgl>, aca_geomorphic <chr>, aca_benthic <chr>, management <chr>,
#> #   management_secondary <chr>, management_est_year <int>, management_size <lgl>,
#> #   management_parties <chr>, management_compliance <chr>, management_rules <chr>,
#> #   sample_date <date>, sample_time <chr>, depth <dbl>, quadrat_size <dbl>, label <chr>,
#> #   observers <chr>, benthic_attribute <chr>, growth_form <chr>, …
```
…
