Accessing Project Data • mermaidr
…
Then, you can start to access data about your projects, like project
sites via mermaid_get_project_sites():

indonesia_projects %>%
  mermaid_get_project_sites()
#> # A tibble: 155 × 12
#>    project      id    name  notes latitude longitude country reef_type reef_zone
#>    <chr>        <chr> <chr> <chr>    <dbl>     <dbl> <chr>   <chr>     <chr>    
#>  1 Karimunjawa… a763… Gent… ""       -5.86     111.  Indone… fringing  back reef
#>  2 Copy of Kar… 2458… Gent… ""       -5.86     111.  Indone… fringing  back reef
#>  3 Aceh Jaya C… 5436… Wisa… ""        5.04      95.4 Indone… fringing  fore reef
#>  4 Aceh Jaya C… b7d5… Reha… ""        4.84      95.4 Indone… fringing  fore reef
#>  5 Karimunjawa… 0368… Meny… ""       -5.80     110.  Indone… fringing  fore reef
#>  6 Copy of Kar… 4f5f… Meny… ""       -5.80     110.  Indone… fringing  fore reef
#>  7 Aceh Jaya C… 38f7… Pula… ""        5.08      95.3 Indone… fringing  back reef
#>  8 Karimunjawa… 21ae… Batu… ""       -5.81     110.  Indone… fringing  back reef
#>  9 Karimunjawa… 371b… Tanj… ""       -5.83     110.  Indone… fringing  back reef
#> 10 Karimunjawa… 43d3… Lego… ""       -5.87     110.  Indone… fringing  back reef
#> # ℹ 145 more rows
#> # ℹ 3 more variables: exposure <chr>, created_on <chr>, updated_on <chr>

Or the managements for your projects via
mermaid_get_project_managements():

indonesia_projects %>%
  mermaid_get_project_managements()
#> # A tibble: 30 × 18
#>    project          id    name  name_secondary est_year  size parties compliance
#>    <chr>            <chr> <chr> <chr>             <int> <dbl> <chr>   <chr>     
#>  1 TWP Gili Sulat … 0975… Zona… "Core Zone"        2013    NA govern… full      
#>  2 Aceh Jaya Coast… cc92… Core… ""                 2019    NA commun… full      
#>  3 Aceh Jaya Coast… 1498… Tour… ""                 2019    NA commun… low       
#>  4 Aceh Jaya Coast… 646c… Fish… ""                 2019    NA commun… low       
#>  5 Aceh Jaya Coast… a579… Aqua… ""                 2019    NA commun… low       
#>  6 Aceh Jaya Coast… dce8… Reha… ""                 2019    NA commun… low       
#>  7 Karimunjawa Nat… 8b90… Fish… ""                 2005     0 commun… low       
#>  8 Karimunjawa Nat… a7e2… Tour… ""                 2005    NA commun… low       
#>  9 Karimunjawa Nat… bd73… Reha… ""                 2005    NA commun… low       
#> 10 Copy of Karimun… 510a… Fish… ""                 2005     0 <NA>    low       
#> # ℹ 20 more rows
#> # ℹ 10 more variables: open_access <lgl>, no_take <lgl>,
#> #   access_restriction <lgl>, periodic_closure <lgl>, size_limits <lgl>,
#> #   gear_restriction <lgl>, species_restriction <lgl>, notes <chr>,
#> #   created_on <chr>, updated_on <chr>
…
Fish Belt data

To access Fish Belt data for a project, use
mermaid_get_project_data() with
method = "fishbelt".

You can access individual observations (i.e., a record of each
observation) by setting data = "observations":

xpdc <- my_projects %>%
  filter(name == "XPDC Kei Kecil 2018")

xpdc %>%
  mermaid_get_project_data(method = "fishbelt", data = "observations")
#> # A tibble: 3,069 × 52
#>    project            tags  country site  latitude longitude reef_type reef_zone
#>    <chr>              <lgl> <chr>   <chr>    <dbl>     <dbl> <chr>     <chr>    
#>  1 XPDC Kei Kecil 20… NA    Indone… KE02     -5.44      133. fringing  crest    
#>  2 XPDC Kei Kecil 20… NA    Indone… KE02     -5.44      133. fringing  crest    
#>  3 XPDC Kei Kecil 20… NA    Indone… KE02     -5.44      133. fringing  crest    
#>  4 XPDC Kei Kecil 20… NA    Indone… KE02     -5.44      133. fringing  crest    
#>  5 XPDC Kei Kecil 20… NA    Indone… KE02     -5.44      133. fringing  crest    
#>  6 XPDC Kei Kecil 20… NA    Indone… KE02     -5.44      133. fringing  crest    
#>  7 XPDC Kei Kecil 20… NA    Indone… KE02     -5.44      133. fringing  crest    
#>  8 XPDC Kei Kecil 20… NA    Indone… KE02     -5.44      133. fringing  crest    
#>  9 XPDC Kei Kecil 20… NA    Indone… KE02     -5.44      133. fringing  crest    
#> 10 XPDC Kei Kecil 20… NA    Indone… KE02     -5.44      133. fringing  crest    
#> # ℹ 3,059 more rows
#> # ℹ 44 more variables: reef_exposure <chr>, reef_slope <chr>, tide <chr>,
#> #   current <chr>, visibility <chr>, relative_depth <chr>, management <chr>,
#> #   management_secondary <chr>, management_est_year <lgl>,
#> #   management_size <lgl>, management_parties <lgl>,
#> #   management_compliance <chr>, management_rules <chr>, sample_date <date>,
#> #   sample_time <time>, depth <dbl>, transect_length <dbl>, …

You can access sample units data, which are observations aggregated
to the sample units level. Fish belt sample units contain total biomass
in kg/ha per sample unit, by trophic group and by fish family:

xpdc %>%
  mermaid_get_project_data("fishbelt", "sampleunits")
#> # A tibble: 246 × 64
#>    project            tags  country site  latitude longitude reef_type reef_zone
#>    <chr>              <lgl> <chr>   <chr>    <dbl>     <dbl> <chr>     <chr>    
#>  1 XPDC Kei Kecil 20… NA    Indone… KE02     -5.44      133. fringing  crest    
#>  2 XPDC Kei Kecil 20… NA    Indone… KE02     -5.44      133. fringing  crest    
#>  3 XPDC Kei Kecil 20… NA    Indone… KE02     -5.44      133. fringing  crest    
#>  4 XPDC Kei Kecil 20… NA    Indone… KE02     -5.44      133. fringing  crest    
#>  5 XPDC Kei Kecil 20… NA    Indone… KE02     -5.44      133. fringing  crest    
#>  6 XPDC Kei Kecil 20… NA    Indone… KE02     -5.44      133. fringing  crest    
#>  7 XPDC Kei Kecil 20… NA    Indone… KE03     -5.61      132. fringing  crest    
#>  8 XPDC Kei Kecil 20… NA    Indone… KE03     -5.61      132. fringing  crest    
#>  9 XPDC Kei Kecil 20… NA    Indone… KE03     -5.61      132. fringing  crest    
#> 10 XPDC Kei Kecil 20… NA    Indone… KE03     -5.61      132. fringing  crest    
#> # ℹ 236 more rows
#> # ℹ 56 more variables: reef_exposure <chr>, reef_slope <chr>, tide <chr>,
#> #   current <chr>, visibility <chr>, relative_depth <chr>, management <chr>,
#> #   management_secondary <chr>, management_est_year <lgl>,
#> #   management_size <lgl>, management_parties <lgl>,
#> #   management_compliance <chr>, management_rules <chr>, sample_date <date>,
#> #   sample_time <chr>, depth <dbl>, transect_number <dbl>, label <lgl>, …

And finally, sample events data, which are aggregated further, to the
sample event level. Fish belt sample events contain mean total
biomass in kg/ha per sample event, by trophic group and by fish family,
as well as standard deviations:

xpdc_sample_events <- xpdc %>%
  mermaid_get_project_data("fishbelt", "sampleevents")

xpdc_sample_events
#> # A tibble: 46 × 79
#>    project            tags  country site  latitude longitude reef_type reef_zone
#>    <chr>              <lgl> <chr>   <chr>    <dbl>     <dbl> <chr>     <chr>    
#>  1 XPDC Kei Kecil 20… NA    Indone… KE02     -5.44      133. fringing  crest    
#>  2 XPDC Kei Kecil 20… NA    Indone… KE03     -5.61      132. fringing  crest    
#>  3 XPDC Kei Kecil 20… NA    Indone… KE04     -5.58      132. fringing  crest    
#>  4 XPDC Kei Kecil 20… NA    Indone… KE05     -5.47      133. fringing  crest    
#>  5 XPDC Kei Kecil 20… NA    Indone… KE06     -5.52      132. fringing  crest    
#>  6 XPDC Kei Kecil 20… NA    Indone… KE07     -5.57      133. fringing  crest    
#>  7 XPDC Kei Kecil 20… NA    Indone… KE08     -5.55      133. fringing  crest    
#>  8 XPDC Kei Kecil 20… NA    Indone… KE09     -5.60      133. fringing  fore reef
#>  9 XPDC Kei Kecil 20… NA    Indone… KE10     -5.57      133. fringing  crest    
#> 10 XPDC Kei Kecil 20… NA    Indone… KE11     -5.59      133. fringing  crest    
#> # ℹ 36 more rows
#> # ℹ 71 more variables: reef_exposure <chr>, tide <chr>, current <chr>,
#> #   visibility <chr>, management <chr>, management_secondary <chr>,
#> #   management_est_year <lgl>, management_size <lgl>, management_parties <lgl>,
#> #   management_compliance <chr>, management_rules <chr>, sample_date <date>,
#> #   depth_avg <dbl>, depth_sd <dbl>, biomass_kgha_avg <dbl>,
#> #   biomass_kgha_sd <dbl>, biomass_kgha_trophic_group_avg_omnivore <dbl>, …

Benthic LIT data

To access Benthic LIT data, use
mermaid_get_project_data() with
method = "benthiclit".

mozambique <- my_projects %>%
  filter(name == "WCS Mozambique Coral Reef Monitoring")

mozambique %>%
  mermaid_get_project_data(method = "benthiclit", data = "observations")
#> # A tibble: 1,569 × 41
#>    project            tags  country site  latitude longitude reef_type reef_zone
#>    <chr>              <chr> <chr>   <chr>    <dbl>     <dbl> <chr>     <chr>    
#>  1 WCS Mozambique Co… WCS … Mozamb… Barr…    -26.0      32.9 barrier   back reef
#>  2 WCS Mozambique Co… WCS … Mozamb… Barr…    -26.0      32.9 barrier   back reef
#>  3 WCS Mozambique Co… WCS … Mozamb… Barr…    -26.0      32.9 barrier   back reef
#>  4 WCS Mozambique Co… WCS … Mozamb… Barr…    -26.0      32.9 barrier   back reef
#>  5 WCS Mozambique Co… WCS … Mozamb… Barr…    -26.0      32.9 barrier   back reef
#>  6 WCS Mozambique Co… WCS … Mozamb… Barr…    -26.0      32.9 barrier   back reef
#>  7 WCS Mozambique Co… WCS … Mozamb… Barr…    -26.0      32.9 barrier   back reef
#>  8 WCS Mozambique Co… WCS … Mozamb… Barr…    -26.0      32.9 barrier   back reef
#>  9 WCS Mozambique Co… WCS … Mozamb… Barr…    -26.0      32.9 barrier   back reef
#> 10 WCS Mozambique Co… WCS … Mozamb… Barr…    -26.0      32.9 barrier   back reef
#> # ℹ 1,559 more rows
#> # ℹ 33 more variables: reef_exposure <chr>, reef_slope <lgl>, tide <chr>,
#> #   current <lgl>, visibility <lgl>, relative_depth <lgl>, management <chr>,
#> #   management_secondary <lgl>, management_est_year <dbl>,
#> #   management_size <lgl>, management_parties <chr>,
#> #   management_compliance <chr>, management_rules <chr>, sample_date <date>,
#> #   sample_time <time>, depth <dbl>, transect_number <dbl>, …

You can access sample units and sample events the same way.

For Benthic LIT, sample units contain percent cover per sample unit,
by benthic category. Sample events contain mean
percent cover per sample event, by benthic category, and standard
deviations for these values:

mozambique %>%
  mermaid_get_project_data(method = "benthiclit", data = "sampleunits")
#> # A tibble: 63 × 50
#>    project            tags  country site  latitude longitude reef_type reef_zone
#>    <chr>              <chr> <chr>   <chr>    <dbl>     <dbl> <chr>     <chr>    
#>  1 WCS Mozambique Co… WCS … Mozamb… Barr…    -26.0      32.9 barrier   back reef
#>  2 WCS Mozambique Co… WCS … Mozamb… Barr…    -26.0      32.9 barrier   back reef
#>  3 WCS Mozambique Co… WCS … Mozamb… Barr…    -26.0      32.9 barrier   back reef
#>  4 WCS Mozambique Co… WCS … Mozamb… Barr…    -26.0      32.9 barrier   back reef
#>  5 WCS Mozambique Co… WCS … Mozamb… Barr…    -26.0      32.9 barrier   back reef
#>  6 WCS Mozambique Co… WCS … Mozamb… Barr…    -26.0      32.9 barrier   back reef
#>  7 WCS Mozambique Co… WCS … Mozamb… Barr…    -26.1      32.9 barrier   back reef
#>  8 WCS Mozambique Co… WCS … Mozamb… Barr…    -26.1      32.9 barrier   back reef
#>  9 WCS Mozambique Co… WCS … Mozamb… Barr…    -26.1      32.9 barrier   back reef
#> 10 WCS Mozambique Co… WCS … Mozamb… Barr…    -26.1      32.9 barrier   back reef
#> # ℹ 53 more rows
#> # ℹ 42 more variables: reef_exposure <chr>, reef_slope <lgl>, tide <chr>,
#> #   current <lgl>, visibility <lgl>, relative_depth <lgl>, management <chr>,
#> #   management_secondary <lgl>, management_est_year <dbl>,
#> #   management_size <lgl>, management_parties <chr>,
#> #   management_compliance <chr>, management_rules <chr>, sample_date <date>,
#> #   sample_time <time>, depth <dbl>, transect_number <dbl>, …

Benthic PIT data

To access Benthic LIT data, change method to
“benthicpit”:

xpdc %>%
  mermaid_get_project_data(method = "benthicpit", data = "observations")
#> # A tibble: 11,100 × 46
#>    project            tags  country site  latitude longitude reef_type reef_zone
#>    <chr>              <lgl> <chr>   <chr>    <dbl>     <dbl> <chr>     <chr>    
#>  1 XPDC Kei Kecil 20… NA    Indone… KE02     -5.44      133. fringing  crest    
#>  2 XPDC Kei Kecil 20… NA    Indone… KE02     -5.44      133. fringing  crest    
#>  3 XPDC Kei Kecil 20… NA    Indone… KE02     -5.44      133. fringing  crest    
#>  4 XPDC Kei Kecil 20… NA    Indone… KE02     -5.44      133. fringing  crest    
#>  5 XPDC Kei Kecil 20… NA    Indone… KE02     -5.44      133. fringing  crest    
#>  6 XPDC Kei Kecil 20… NA    Indone… KE02     -5.44      133. fringing  crest    
#>  7 XPDC Kei Kecil 20… NA    Indone… KE02     -5.44      133. fringing  crest    
#>  8 XPDC Kei Kecil 20… NA    Indone… KE02     -5.44      133. fringing  crest    
#>  9 XPDC Kei Kecil 20… NA    Indone… KE02     -5.44      133. fringing  crest    
#> 10 XPDC Kei Kecil 20… NA    Indone… KE02     -5.44      133. fringing  crest    
#> # ℹ 11,090 more rows
#> # ℹ 38 more variables: reef_exposure <chr>, reef_slope <chr>, tide <chr>,
#> #   current <chr>, visibility <chr>, relative_depth <chr>, management <chr>,
#> #   management_secondary <chr>, management_est_year <lgl>,
#> #   management_size <lgl>, management_parties <lgl>,
#> #   management_compliance <chr>, management_rules <chr>, sample_date <date>,
#> #   sample_time <time>, depth <dbl>, transect_number <dbl>, …

You can access sample units and sample events the same way, and the
data format is the same as Benthic LIT.

You can return both sample units and sample events by setting the
data argument. This will return a list of two data frames:
one containing sample units, and the other sample events.

xpdc_sample_units_events <- xpdc %>%
  mermaid_get_project_data(method = "benthicpit", data = c("sampleunits", "sampleevents"))

names(xpdc_sample_units_events)
#> [1] "sampleunits"  "sampleevents"
xpdc_sample_units_events[["sampleunits"]]
#> # A tibble: 111 × 55
#>    project            tags  country site  latitude longitude reef_type reef_zone
#>    <chr>              <lgl> <chr>   <chr>    <dbl>     <dbl> <chr>     <chr>    
#>  1 XPDC Kei Kecil 20… NA    Indone… KE02     -5.44      133. fringing  crest    
#>  2 XPDC Kei Kecil 20… NA    Indone… KE02     -5.44      133. fringing  crest    
#>  3 XPDC Kei Kecil 20… NA    Indone… KE02     -5.44      133. fringing  crest    
#>  4 XPDC Kei Kecil 20… NA    Indone… KE03     -5.61      132. fringing  crest    
#>  5 XPDC Kei Kecil 20… NA    Indone… KE03     -5.61      132. fringing  crest    
#>  6 XPDC Kei Kecil 20… NA    Indone… KE03     -5.61      132. fringing  crest    
#>  7 XPDC Kei Kecil 20… NA    Indone… KE04     -5.58      132. fringing  crest    
#>  8 XPDC Kei Kecil 20… NA    Indone… KE04     -5.58      132. fringing  crest    
#>  9 XPDC Kei Kecil 20… NA    Indone… KE04     -5.58      132. fringing  crest    
#> 10 XPDC Kei Kecil 20… NA    Indone… KE05     -5.47      133. fringing  crest    
#> # ℹ 101 more rows
#> # ℹ 47 more variables: reef_exposure <chr>, reef_slope <chr>, tide <chr>,
#> #   current <chr>, visibility <chr>, relative_depth <chr>, management <chr>,
#> #   management_secondary <chr>, management_est_year <lgl>,
#> #   management_size <lgl>, management_parties <lgl>,
#> #   management_compliance <chr>, management_rules <chr>, sample_date <date>,
#> #   sample_time <time>, depth <dbl>, transect_number <dbl>, …
Bleaching

To access Bleaching data, set method to “bleaching”.
There are two types of observations data for the Bleaching method:
Colonies Bleached and Percent Cover. These are both returned when
pulling observations data, in a list:

bleaching_obs <- mozambique %>%
  mermaid_get_project_data("bleaching", "observations")

names(bleaching_obs)
#> [1] "colonies_bleached" "percent_cover"

bleaching_obs[["colonies_bleached"]]
#> # A tibble: 1,814 × 43
#>    project            tags  country site  latitude longitude reef_type reef_zone
#>    <chr>              <chr> <chr>   <chr>    <dbl>     <dbl> <chr>     <chr>    
#>  1 WCS Mozambique Co… WCS … Mozamb… Aqua…    -21.8      35.5 barrier   back reef
#>  2 WCS Mozambique Co… WCS … Mozamb… Aqua…    -21.8      35.5 barrier   back reef
#>  3 WCS Mozambique Co… WCS … Mozamb… Aqua…    -21.8      35.5 barrier   back reef
#>  4 WCS Mozambique Co… WCS … Mozamb… Aqua…    -21.8      35.5 barrier   back reef
#>  5 WCS Mozambique Co… WCS … Mozamb… Aqua…    -21.8      35.5 barrier   back reef
#>  6 WCS Mozambique Co… WCS … Mozamb… Aqua…    -21.8      35.5 barrier   back reef
#>  7 WCS Mozambique Co… WCS … Mozamb… Aqua…    -21.8      35.5 barrier   back reef
#>  8 WCS Mozambique Co… WCS … Mozamb… Aqua…    -21.8      35.5 barrier   back reef
#>  9 WCS Mozambique Co… WCS … Mozamb… Aqua…    -21.8      35.5 barrier   back reef
#> 10 WCS Mozambique Co… WCS … Mozamb… Aqua…    -21.8      35.5 barrier   back reef
#> # ℹ 1,804 more rows
#> # ℹ 35 more variables: reef_exposure <chr>, tide <lgl>, current <lgl>,
#> #   visibility <lgl>, relative_depth <lgl>, management <chr>,
#> #   management_secondary <lgl>, management_est_year <dbl>,
#> #   management_size <lgl>, management_parties <chr>,
#> #   management_compliance <chr>, management_rules <chr>, sample_date <date>,
#> #   sample_time <time>, depth <dbl>, quadrat_size <dbl>, label <chr>, …

The sample units and sample events data contain summaries of both
Colonies Bleached and Percent Cover:

mozambique %>%
  mermaid_get_project_data("bleaching", "sampleevents")
#> # A tibble: 62 × 49
#>    project            tags  country site  latitude longitude reef_type reef_zone
#>    <chr>              <chr> <chr>   <chr>    <dbl>     <dbl> <chr>     <chr>    
#>  1 WCS Mozambique Co… WCS … Mozamb… Aqua…    -21.8      35.5 barrier   back reef
#>  2 WCS Mozambique Co… WCS … Mozamb… Baby…    -11.0      40.7 fringing  fore reef
#>  3 WCS Mozambique Co… WCS … Mozamb… Balu…    -22.0      35.5 patch     fore reef
#>  4 WCS Mozambique Co… WCS … Mozamb… Dos …    -12.1      40.6 lagoon    back reef
#>  5 WCS Mozambique Co… WCS … Mozamb… Fing…    -12.9      40.6 fringing  fore reef
#>  6 WCS Mozambique Co… WCS … Mozamb… Kisi…    -11.0      40.7 lagoon    back reef
#>  7 WCS Mozambique Co… WCS … Mozamb… Kisi…    -11.0      40.7 lagoon    back reef
#>  8 WCS Mozambique Co… WCS … Mozamb… Kisi…    -11.0      40.7 lagoon    back reef
#>  9 WCS Mozambique Co… WCS … Mozamb… Libe…    -14.5      40.7 fringing  back reef
#> 10 WCS Mozambique Co… WCS … Mozamb… Ligh…    -12.3      40.6 fringing  fore reef
#> # ℹ 52 more rows
#> # ℹ 41 more variables: reef_exposure <chr>, tide <lgl>, current <lgl>,
#> #   visibility <lgl>, management <chr>, management_secondary <lgl>,
#> #   management_est_year <dbl>, management_size <lgl>, management_parties <chr>,
#> #   management_compliance <chr>, management_rules <chr>, sample_date <date>,
#> #   depth_avg <dbl>, depth_sd <dbl>, quadrat_size_avg <dbl>,
#> #   count_total_avg <dbl>, count_total_sd <dbl>, count_genera_avg <dbl>, …
…
