WCS Vibrant Oceans Baseline Coral Reef Monitoring • mermaidr
…
You can also use the code to calculate the average hard coral cover
percentage based on other columns. For example, if you want to average
per management regime, you can group by management
instead:

benthic_data_latest %>%
  group_by(management) %>%
  summarise(
    n_sites = n_distinct(site),
    hard_coral_average = mean(hard_coral),
    hard_coral_sd = sd(hard_coral),
    hard_coral_se = hard_coral_sd / sqrt(n_sites)
  )
#> # A tibble: 35 × 5
#>    management             n_sites hard_coral_average hard_coral_sd hard_coral_se
#>    <chr>                    <int>              <dbl>         <dbl>         <dbl>
#>  1 Bu_LMMA                      4               21.8          7.73          3.86
#>  2 Control                      3               30.9         12.1           7.00
#>  3 Core Zone                   34               43.8         17.7           3.03
#>  4 Dama_LMMA                    8               23.1          9.47          3.35
#>  5 Dama_Tabu                    3               36.6          9.86          5.69
#>  6 Dawa_LMMA                   12               29.3         12.9           3.72
#>  7 Diani Marine Reserve         1               29.2         NA            NA   
#>  8 Fisheries                    4               54.7          3.46          1.73
#>  9 Fisheries Sustainabil…       6               50.3         15.4           6.27
#> 10 Fisheries Utilization        6               45.7          6.38          2.60
#> # ℹ 25 more rows
…
benthic_data <- benthic_data %>%
  select(country, site, sample_date, hard_coral = percent_cover_benthic_category_avg_hard_coral)

The next step is to separate it into year, month, and day. To do
this, we’re going to use the separate() function.

benthic_data <- benthic_data %>%
  separate(sample_date,
    into = c("year", "month", "day"),
    sep = "-"
  )

benthic_data
#> # A tibble: 295 × 6
#>    country   site                  year  month day   hard_coral
#>    <chr>     <chr>                 <chr> <chr> <chr>      <dbl>
#>  1 Indonesia Ampalas Barat         2015  04    22          25.7
#>  2 Indonesia Ampalas Timur         2015  04    22          19.8
#>  3 Indonesia Belang-Belang         2015  04    12          17.7
#>  4 Indonesia Bungin Kamase         2015  04    20          25.7
#>  5 Indonesia Bungin Laloh          2015  04    23          40.7
#>  6 Indonesia Jinato Barat          2015  04    17          52  
#>  7 Indonesia Lantigiang Barat Daya 2015  04    16          38.5
#>  8 Indonesia Lantigiang Utara      2015  04    16          22.7
#>  9 Indonesia Latondu Kecil 1       2015  04    09          45.3
#> 10 Indonesia Latondu Kecil 2       2015  04    09          23.7
#> # ℹ 285 more rows
…
